Gene.Symbol	Uniprot.ID	Gene.ID	RNAPI	IPI
AATF	AATF_HUMAN	26574	dependent	IPI00302238
ABT1	ABT1_HUMAN	29777	dependent	IPI00002938
ADAR	DSRAD_HUMAN	103	dependent	IPI00025057
ADAR	DSRAD_HUMAN	103	dependent	IPI00025058
ADAR	DSRAD_HUMAN	103	dependent	IPI00394665
ADAR	DSRAD_HUMAN	103	dependent	IPI00394668
ADAR	DSRAD_HUMAN	103	dependent	IPI00760588
ADAR	DSRAD_HUMAN	103	dependent	IPI00978400
AHNAK	AHNK_HUMAN	79026	independent	IPI00021812
AHNAK	AHNK_HUMAN	79026	independent	IPI00031605
AHNAK	AHNK_HUMAN	79026	independent	IPI00975545
AHNAK	AHNK_HUMAN	79026	independent	IPI00978926
AHNAK	AHNK_HUMAN	79026	independent	IPI00979461
AHNAK	AHNK_HUMAN	79026	independent	IPI00980977
AHNAK	AHNK_HUMAN	79026	independent	IPI00981507
AKAP1	AKAP1_HUMAN	8165	independent	IPI00022585
AKAP1	AKAP1_HUMAN	8165	independent	IPI00158627
AKAP1	AKAP1_HUMAN	8165	independent	IPI00942186
AKAP8	AKAP8_HUMAN	10270	independent	IPI00014474
AKAP9	AKAP9_HUMAN	10142	dependent	IPI00019223
AKAP9	AKAP9_HUMAN	10142	dependent	IPI00220624
AKAP9	AKAP9_HUMAN	10142	dependent	IPI00220625
AKAP9	AKAP9_HUMAN	10142	dependent	IPI00220627
AKAP9	AKAP9_HUMAN	10142	dependent	IPI00220628
AKAP9	AKAP9_HUMAN	10142	dependent	IPI00793082
AKAP9	AKAP9_HUMAN	10142	dependent	IPI00902900
ALYREF	THOC4_HUMAN	10189	independent	IPI00328840
ALYREF	THOC4_HUMAN	10189	independent	IPI01010794
ANXA2	ANXA2_HUMAN	302	independent	IPI00418169
ANXA2	ANXA2_HUMAN	302	independent	IPI00455315
API5	API5_HUMAN	8539	independent	IPI00554742
API5	API5_HUMAN	8539	independent	IPI00555572
API5	API5_HUMAN	8539	independent	IPI00555743
API5	API5_HUMAN	8539	independent	IPI00855856
API5	API5_HUMAN	8539	independent	IPI00908668
API5	API5_HUMAN	8539	independent	IPI00910664
API5	API5_HUMAN	8539	independent	IPI00975957
API5	API5_HUMAN	8539	independent	IPI00978005
APOBEC3F	ABC3F_HUMAN	200316	dependent	IPI00409765
APOBEC3F	ABC3F_HUMAN	200316	dependent	IPI00477614
AQR	AQR_HUMAN	9716	independent	IPI00796835
ATXN2L	ATX2L_HUMAN	11273	independent	IPI00456359
ATXN2L	ATX2L_HUMAN	11273	independent	IPI00456361
ATXN2L	ATX2L_HUMAN	11273	independent	IPI00456363
ATXN2L	ATX2L_HUMAN	11273	independent	IPI00456365
ATXN2L	ATX2L_HUMAN	11273	independent	IPI00456367
ATXN2L	ATX2L_HUMAN	11273	independent	IPI00456369
ATXN2L	ATX2L_HUMAN	11273	independent	IPI01018244
BCL2L2	B2CL2_HUMAN	599	independent	IPI00023787
BCLAF1	BCLF1_HUMAN	9774	independent	IPI00006079
BCLAF1	BCLF1_HUMAN	9774	independent	IPI00413671
BCLAF1	BCLF1_HUMAN	9774	independent	IPI00413672
BCLAF1	BCLF1_HUMAN	9774	independent	IPI00413673
BCLAF1	BCLF1_HUMAN	9774	independent	IPI00976642
BCLAF1	BCLF1_HUMAN	9774	independent	IPI00976726
BCLAF1	BCLF1_HUMAN	9774	independent	IPI00977358
BCLAF1	BCLF1_HUMAN	9774	independent	IPI00978390
BCLAF1	BCLF1_HUMAN	9774	independent	IPI00979099
BCLAF1	BCLF1_HUMAN	9774	independent	IPI00980443
BMS1	BMS1_HUMAN	9790	dependent	IPI00006099
BOP1	BOP1_HUMAN	23246	dependent	IPI00028955
BOP1	BOP1_HUMAN	23246	dependent	IPI00741996
BOP1	BOP1_HUMAN	23246	dependent	IPI00978873
BOP1	BOP1_HUMAN	23246	dependent	IPI00979937
BRIX1	BRX1_HUMAN	55299	dependent	IPI00181728
BYSL	BYST_HUMAN	705	dependent	IPI00328987
BYSL	BYST_HUMAN	705	dependent	IPI00946581
C19orf66	CS066_HUMAN	55337	independent	IPI00167592
C19orf66	CS066_HUMAN	55337	independent	IPI00383563
C19orf66	CS066_HUMAN	55337	independent	IPI00413853
C19orf66	CS066_HUMAN	55337	independent	IPI00642518
C7orf50	CG050_HUMAN	84310	dependent	IPI00031651
C7orf50	CG050_HUMAN	84310	dependent	IPI00947406
CAPRIN1	CAPR1_HUMAN	4076	independent	IPI00783872
CAPRIN1	CAPR1_HUMAN	4076	independent	IPI00873926
CAPRIN1	CAPR1_HUMAN	4076	independent	IPI00975644
CAPRIN1	CAPR1_HUMAN	4076	independent	IPI00978969
CCAR2	K1967_HUMAN	57805	independent	IPI00182757
CCAR2	K1967_HUMAN	57805	independent	IPI00873406
CCAR2	K1967_HUMAN	57805	independent	IPI00978358
CCAR2	K1967_HUMAN	57805	independent	IPI00980303
CCAR2	K1967_HUMAN	57805	independent	IPI00982043
CCAR2	K1967_HUMAN	57805	independent	IPI00982682
CCDC137	CC137_HUMAN	339230	dependent	IPI00401962
CCDC59	TAP26_HUMAN	29080	dependent	IPI00329594
CCDC59	TAP26_HUMAN	29080	dependent	IPI01021545
CDK5RAP2	CK5P2_HUMAN	55755	dependent	IPI00329038
CDK5RAP2	CK5P2_HUMAN	55755	dependent	IPI00329039
CDK5RAP2	CK5P2_HUMAN	55755	dependent	IPI00384417
CDK5RAP2	CK5P2_HUMAN	55755	dependent	IPI00384418
CDK5RAP2	CK5P2_HUMAN	55755	dependent	IPI00385005
CDK5RAP2	CK5P2_HUMAN	55755	dependent	IPI00946374
CDK5RAP2	CK5P2_HUMAN	55755	dependent	IPI00946528
CDK5RAP2	CK5P2_HUMAN	55755	dependent	IPI00946764
CEBPZ	CEBPZ_HUMAN	10153	dependent	IPI00306723
CEBPZ	CEBPZ_HUMAN	10153	dependent	IPI00893383
CELF1	CELF1_HUMAN	10658	independent	IPI00034015
CELF1	CELF1_HUMAN	10658	independent	IPI00218388
CELF1	CELF1_HUMAN	10658	independent	IPI00218389
CELF1	CELF1_HUMAN	10658	independent	IPI00853009
CELF1	CELF1_HUMAN	10658	independent	IPI00956101
CELF1	CELF1_HUMAN	10658	independent	IPI00978122
CELF1	CELF1_HUMAN	10658	independent	IPI00982054
CELF1	CELF1_HUMAN	10658	independent	IPI00982591
CELF1	CELF1_HUMAN	10658	independent	IPI00984001
CELF1	CELF1_HUMAN	10658	independent	IPI01013116
CELF1	CELF1_HUMAN	10658	independent	IPI01014573
CELF1	CELF1_HUMAN	10658	independent	IPI01015313
CELF1	CELF1_HUMAN	10658	independent	IPI01015825
CENPE	CENPE_HUMAN	1062	independent	IPI00296365
CENPE	CENPE_HUMAN	1062	independent	IPI00619925
CENPE	CENPE_HUMAN	1062	independent	IPI00868715
CENPE	CENPE_HUMAN	1062	independent	IPI00967647
CEP250	CP250_HUMAN	11190	dependent	IPI00160622
CEP250	CP250_HUMAN	11190	dependent	IPI00292871
CEP250	CP250_HUMAN	11190	dependent	IPI00411661
CEP250	CP250_HUMAN	11190	dependent	IPI00852700
CEP250	CP250_HUMAN	11190	dependent	IPI00916490
CEP250	CP250_HUMAN	11190	dependent	IPI00945119
CEP290	CE290_HUMAN	80184	dependent	IPI00794668
CEP290	CE290_HUMAN	80184	dependent	IPI01021155
CEP290	CE290_HUMAN	80184	dependent	IPI01022523
CEP290	CE290_HUMAN	80184	dependent	IPI01023013
CEP290	CE290_HUMAN	80184	dependent	IPI01023020
CIRBP	CIRBP_HUMAN	1153	independent	IPI00641579
CIRBP	CIRBP_HUMAN	1153	independent	IPI00909097
CIRBP	CIRBP_HUMAN	1153	independent	IPI01018300
CKAP4	CKAP4_HUMAN	10970	independent	IPI00141318
CKAP4	CKAP4_HUMAN	10970	independent	IPI01022730
CSDE1	CSDE1_HUMAN	7812	independent	IPI00470891
CSDE1	CSDE1_HUMAN	7812	independent	IPI00873244
CSDE1	CSDE1_HUMAN	7812	independent	IPI00973794
CSDE1	CSDE1_HUMAN	7812	independent	IPI00977065
CSDE1	CSDE1_HUMAN	7812	independent	IPI00977654
CSDE1	CSDE1_HUMAN	7812	independent	IPI00978608
CSDE1	CSDE1_HUMAN	7812	independent	IPI00979855
CSDE1	CSDE1_HUMAN	7812	independent	IPI00980415
CSTF2	CSTF2_HUMAN	1478	independent	IPI00013256
CSTF2	CSTF2_HUMAN	1478	independent	IPI00607841
CSTF2	CSTF2_HUMAN	1478	independent	IPI00902991
CSTF2	CSTF2_HUMAN	1478	independent	IPI01012987
CSTF2T	CSTFT_HUMAN	23283	independent	IPI00550906
DAZAP1	DAZP1_HUMAN	26528	independent	IPI00165230
DAZAP1	DAZP1_HUMAN	26528	independent	IPI00335930
DCAF13	DCA13_HUMAN	25879	dependent	IPI00306642
DCAF13	DCA13_HUMAN	25879	dependent	IPI00747916
DCAF13	DCA13_HUMAN	25879	dependent	IPI00929259
DCAF13	DCA13_HUMAN	25879	dependent	IPI00973743
DCAF13	DCA13_HUMAN	25879	dependent	IPI00974441
DDX10	DDX10_HUMAN	1662	dependent	IPI00297900
DDX10	DDX10_HUMAN	1662	dependent	IPI00982941
DDX17	DDX17_HUMAN	10521	independent	IPI00651653
DDX17	DDX17_HUMAN	10521	independent	IPI00651677
DDX17	DDX17_HUMAN	10521	independent	IPI00889541
DDX17	DDX17_HUMAN	10521	independent	IPI01022339
DDX17	DDX17_HUMAN	10521	independent	IPI01022656
DDX18	DDX18_HUMAN	8886	dependent	IPI00301323
DDX18	DDX18_HUMAN	8886	dependent	IPI01012260
DDX21	DDX21_HUMAN	9188	dependent	IPI00015953
DDX21	DDX21_HUMAN	9188	dependent	IPI00477179
DDX24	DDX24_HUMAN	57062	dependent	IPI00006987
DDX24	DDX24_HUMAN	57062	dependent	IPI00911118
DDX24	DDX24_HUMAN	57062	dependent	IPI00923556
DDX27	DDX27_HUMAN	55661	dependent	IPI00293078
DDX31	DDX31_HUMAN	64794	dependent	IPI00043990
DDX31	DDX31_HUMAN	64794	dependent	IPI00291296
DDX31	DDX31_HUMAN	64794	dependent	IPI00552374
DDX31	DDX31_HUMAN	64794	dependent	IPI00552716
DDX31	DDX31_HUMAN	64794	dependent	IPI00910952
DDX31	DDX31_HUMAN	64794	dependent	IPI01010837
DDX39A	DX39A_HUMAN	10212	independent	IPI00062206
DDX39A	DX39A_HUMAN	10212	independent	IPI00166874
DDX39A	DX39A_HUMAN	10212	independent	IPI00940237
DDX3X	DDX3X_HUMAN	1654	independent	IPI00215637
DDX3X	DDX3X_HUMAN	1654	independent	IPI00909282
DDX3X	DDX3X_HUMAN	1654	independent	IPI00909544
DDX3X	DDX3X_HUMAN	1654	independent	IPI00985384
DDX47	DDX47_HUMAN	51202	dependent	IPI00023972
DDX47	DDX47_HUMAN	51202	dependent	IPI00397372
DDX47	DDX47_HUMAN	51202	dependent	IPI00792278
DDX49	DDX49_HUMAN	54555	dependent	IPI00003739
DDX49	DDX49_HUMAN	54555	dependent	IPI00012192
DDX5	DDX5_HUMAN	1655	independent	IPI00017617
DDX5	DDX5_HUMAN	1655	independent	IPI00798375
DDX50	DDX50_HUMAN	79009	dependent	IPI00031554
DDX51	DDX51_HUMAN	317781	dependent	IPI00217541
DDX52	DDX52_HUMAN	11056	dependent	IPI00032423
DDX52	DDX52_HUMAN	11056	dependent	IPI00394982
DDX52	DDX52_HUMAN	11056	dependent	IPI01010890
DDX52	DDX52_HUMAN	11056	dependent	IPI01012258
DDX54	DDX54_HUMAN	79039	dependent	IPI00152510
DDX54	DDX54_HUMAN	79039	dependent	IPI00879999
DDX54	DDX54_HUMAN	79039	dependent	IPI01022245
DDX55	DDX55_HUMAN	57696	dependent	IPI00185361
DDX55	DDX55_HUMAN	57696	dependent	IPI00791512
DDX55	DDX55_HUMAN	57696	dependent	IPI01010332
DDX55	DDX55_HUMAN	57696	dependent	IPI01010798
DDX55	DDX55_HUMAN	57696	dependent	IPI01011157
DDX55	DDX55_HUMAN	57696	dependent	IPI01018972
DDX56	DDX56_HUMAN	54606	dependent	IPI00302281
DDX56	DDX56_HUMAN	54606	dependent	IPI00925037
DDX56	DDX56_HUMAN	54606	dependent	IPI00925260
DDX56	DDX56_HUMAN	54606	dependent	IPI00925990
DDX6	DDX6_HUMAN	1656	independent	IPI00030320
DHX15	DHX15_HUMAN	1665	independent	IPI00396435
DHX30	DHX30_HUMAN	22907	independent	IPI00411733
DHX30	DHX30_HUMAN	22907	independent	IPI00926109
DHX30	DHX30_HUMAN	22907	independent	IPI00926295
DHX30	DHX30_HUMAN	22907	independent	IPI00927809
DHX37	DHX37_HUMAN	57647	dependent	IPI00217630
DHX37	DHX37_HUMAN	57647	dependent	IPI01015592
DHX8	DHX8_HUMAN	1659	independent	IPI00031508
DHX8	DHX8_HUMAN	1659	independent	IPI01010550
DHX9	DHX9_HUMAN	1660	independent	IPI00844578
DIEXF	DIEXF_HUMAN	27042	dependent	IPI00004290
DIMT1	DIM1_HUMAN	27292	dependent	IPI00004459
DIMT1	DIM1_HUMAN	27292	dependent	IPI00967757
DKC1	DKC1_HUMAN	1736	dependent	IPI00221394
DKC1	DKC1_HUMAN	1736	dependent	IPI00852712
DMD	DMD_HUMAN	1756	dependent	IPI00006091
DMD	DMD_HUMAN	1756	dependent	IPI00184337
DMD	DMD_HUMAN	1756	dependent	IPI00184813
DMD	DMD_HUMAN	1756	dependent	IPI00220577
DMD	DMD_HUMAN	1756	dependent	IPI00304639
DMD	DMD_HUMAN	1756	dependent	IPI00334178
DMD	DMD_HUMAN	1756	dependent	IPI00334618
DMD	DMD_HUMAN	1756	dependent	IPI00335579
DMD	DMD_HUMAN	1756	dependent	IPI00375141
DMD	DMD_HUMAN	1756	dependent	IPI00376366
DMD	DMD_HUMAN	1756	dependent	IPI00376367
DMD	DMD_HUMAN	1756	dependent	IPI00376375
DMD	DMD_HUMAN	1756	dependent	IPI00419537
DMD	DMD_HUMAN	1756	dependent	IPI00472316
DMD	DMD_HUMAN	1756	dependent	IPI00639906
DMD	DMD_HUMAN	1756	dependent	IPI01011069
DMD	DMD_HUMAN	1756	dependent	IPI01014779
DNTTIP2	TDIF2_HUMAN	30836	dependent	IPI00290410
DNTTIP2	TDIF2_HUMAN	30836	dependent	IPI00982927
EBNA1BP2	EBP2_HUMAN	10969	dependent	IPI00745955
EDF1	EDF1_HUMAN	8721	independent	IPI00006362
EDF1	EDF1_HUMAN	8721	independent	IPI00021570
EEF1A1	EF1A1_HUMAN	1915	independent	IPI00396485
EEF1A1	EF1A1_HUMAN	1915	independent	IPI00984414
EEF1A1	EF1A1_HUMAN	1915	independent	IPI01011117
EIF3A	EIF3A_HUMAN	8661	independent	IPI00029012
EIF3A	EIF3A_HUMAN	8661	independent	IPI01014951
EIF3C	EIF3C_HUMAN	8663	independent	IPI00016910
EIF3D	EIF3D_HUMAN	8664	dependent	IPI00006181
EIF3D	EIF3D_HUMAN	8664	dependent	IPI00789582
EIF3D	EIF3D_HUMAN	8664	dependent	IPI00791086
EIF3D	EIF3D_HUMAN	8664	dependent	IPI00797054
EIF3D	EIF3D_HUMAN	8664	dependent	IPI00879112
EIF3D	EIF3D_HUMAN	8664	dependent	IPI00879735
EIF3D	EIF3D_HUMAN	8664	dependent	IPI00903191
EIF3G	EIF3G_HUMAN	8666	independent	IPI00290460
EIF4A1	IF4A1_HUMAN	1973	independent	IPI00025491
EIF4A1	IF4A1_HUMAN	1973	independent	IPI00910691
EIF4A3	IF4A3_HUMAN	9775	independent	IPI00009328
EIF4B	IF4B_HUMAN	1975	independent	IPI00012079
EIF4B	IF4B_HUMAN	1975	independent	IPI00798302
EIF4B	IF4B_HUMAN	1975	independent	IPI01020867
EIF4B	IF4B_HUMAN	1975	independent	IPI01021042
EIF4B	IF4B_HUMAN	1975	independent	IPI01021052
EIF4B	IF4B_HUMAN	1975	independent	IPI01021182
EIF4B	IF4B_HUMAN	1975	independent	IPI01021378
EIF4B	IF4B_HUMAN	1975	independent	IPI01021513
EIF4B	IF4B_HUMAN	1975	independent	IPI01022506
EIF4G1	IF4G1_HUMAN	1981	independent	IPI00386533
EIF4G1	IF4G1_HUMAN	1981	independent	IPI00479262
EIF4G1	IF4G1_HUMAN	1981	independent	IPI00552639
EIF4G1	IF4G1_HUMAN	1981	independent	IPI00759560
EIF4G1	IF4G1_HUMAN	1981	independent	IPI00798400
EIF4G1	IF4G1_HUMAN	1981	independent	IPI00924828
EIF4G1	IF4G1_HUMAN	1981	independent	IPI00925050
EIF4G1	IF4G1_HUMAN	1981	independent	IPI00925057
EIF4G1	IF4G1_HUMAN	1981	independent	IPI00925407
EIF4G1	IF4G1_HUMAN	1981	independent	IPI00925434
EIF4G1	IF4G1_HUMAN	1981	independent	IPI00925658
EIF4G1	IF4G1_HUMAN	1981	independent	IPI00926013
EIF4G1	IF4G1_HUMAN	1981	independent	IPI00926127
EIF4G1	IF4G1_HUMAN	1981	independent	IPI00926210
EIF4G1	IF4G1_HUMAN	1981	independent	IPI00926237
EIF4G1	IF4G1_HUMAN	1981	independent	IPI00926457
EIF4G1	IF4G1_HUMAN	1981	independent	IPI00926603
EIF4G1	IF4G1_HUMAN	1981	independent	IPI00926681
EIF4G1	IF4G1_HUMAN	1981	independent	IPI00926917
EIF4G1	IF4G1_HUMAN	1981	independent	IPI00927510
EIF4G1	IF4G1_HUMAN	1981	independent	IPI00927765
EIF4G1	IF4G1_HUMAN	1981	independent	IPI00953292
EIF4G1	IF4G1_HUMAN	1981	independent	IPI00955980
EIF4G1	IF4G1_HUMAN	1981	independent	IPI00956559
EIF4G1	IF4G1_HUMAN	1981	independent	IPI01009369
EIF4H	IF4H_HUMAN	7458	independent	IPI00014263
EIF4H	IF4H_HUMAN	7458	independent	IPI00375127
ELAVL1	ELAV1_HUMAN	1994	independent	IPI00301936
ELAVL1	ELAV1_HUMAN	1994	independent	IPI00940851
ELAVL2	ELAV2_HUMAN	1993	independent	IPI00030250
ELAVL2	ELAV2_HUMAN	1993	independent	IPI00184721
ELAVL2	ELAV2_HUMAN	1993	independent	IPI00219967
ELAVL2	ELAV2_HUMAN	1993	independent	IPI00645584
EMG1	NEP1_HUMAN	10436	dependent	IPI00025347
ESF1	ESF1_HUMAN	51575	dependent	IPI00024167
ESRP1	ESRP1_HUMAN	54845	independent	IPI00184262
ESRP1	ESRP1_HUMAN	54845	independent	IPI00654821
ESRP1	ESRP1_HUMAN	54845	independent	IPI00789651
ESRP1	ESRP1_HUMAN	54845	independent	IPI00797684
ESRP1	ESRP1_HUMAN	54845	independent	IPI00889667
ESRP1	ESRP1_HUMAN	54845	independent	IPI00889741
ESRP1	ESRP1_HUMAN	54845	independent	IPI00981964
ESRP2	ESRP2_HUMAN	80004	independent	IPI00034099
ESRP2	ESRP2_HUMAN	80004	independent	IPI00827597
EWSR1	EWS_HUMAN	2130	independent	IPI00065554
EWSR1	EWS_HUMAN	2130	independent	IPI00293254
EWSR1	EWS_HUMAN	2130	independent	IPI00335961
EWSR1	EWS_HUMAN	2130	independent	IPI00872855
EWSR1	EWS_HUMAN	2130	independent	IPI00877697
EWSR1	EWS_HUMAN	2130	independent	IPI00878187
EWSR1	EWS_HUMAN	2130	independent	IPI00879242
EWSR1	EWS_HUMAN	2130	independent	IPI00879259
EWSR1	EWS_HUMAN	2130	independent	IPI00879646
EWSR1	EWS_HUMAN	2130	independent	IPI00880108
EWSR1	EWS_HUMAN	2130	independent	IPI00953325
EWSR1	EWS_HUMAN	2130	independent	IPI00956178
EWSR1	EWS_HUMAN	2130	independent	IPI01026467
EXOSC10	EXOSX_HUMAN	5394	dependent	IPI00009464
EXOSC10	EXOSX_HUMAN	5394	dependent	IPI00220336
EXOSC10	EXOSX_HUMAN	5394	dependent	IPI00815844
EXOSC10	EXOSX_HUMAN	5394	dependent	IPI01010048
EXOSC2	EXOS2_HUMAN	23404	dependent	IPI00015905
EXOSC2	EXOS2_HUMAN	23404	dependent	IPI00644896
EXOSC2	EXOS2_HUMAN	23404	dependent	IPI00645362
EXOSC2	EXOS2_HUMAN	23404	dependent	IPI00646511
EXOSC2	EXOS2_HUMAN	23404	dependent	IPI00647528
FAM120A	F120A_HUMAN	23196	independent	IPI00039626
FAM120A	F120A_HUMAN	23196	independent	IPI00220935
FAM120A	F120A_HUMAN	23196	independent	IPI00384265
FAM120A	F120A_HUMAN	23196	independent	IPI00472054
FAM120A	F120A_HUMAN	23196	independent	IPI00719085
FAM98A	FA98A_HUMAN	25940	independent	IPI00174442
FAM98A	FA98A_HUMAN	25940	independent	IPI00872161
FAM98A	FA98A_HUMAN	25940	independent	IPI00921584
FAM98A	FA98A_HUMAN	25940	independent	IPI01009687
FAM98B	FA98B_HUMAN	283742	independent	IPI00167572
FASTKD2	FAKD2_HUMAN	22868	independent	IPI00013735
FASTKD2	FAKD2_HUMAN	22868	independent	IPI00479951
FASTKD2	FAKD2_HUMAN	22868	independent	IPI00952735
FAU	RS30_HUMAN	2197	independent	IPI00973736
FAU	RS30_HUMAN	2197	independent	IPI00974363
FAU	RS30_HUMAN	2197	independent	IPI00975495
FBL	FBRL_HUMAN	2091	dependent	IPI00025039
FBLL1	FBLL1_HUMAN	345630	dependent	NA
FMR1	FMR1_HUMAN	2332	independent	IPI00215720
FMR1	FMR1_HUMAN	2332	independent	IPI00215721
FMR1	FMR1_HUMAN	2332	independent	IPI00215723
FMR1	FMR1_HUMAN	2332	independent	IPI00215724
FMR1	FMR1_HUMAN	2332	independent	IPI00215725
FMR1	FMR1_HUMAN	2332	independent	IPI00412343
FMR1	FMR1_HUMAN	2332	independent	IPI00645666
FMR1	FMR1_HUMAN	2332	independent	IPI00783298
FMR1	FMR1_HUMAN	2332	independent	IPI00872761
FMR1	FMR1_HUMAN	2332	independent	IPI00937480
FTSJ3	RRMJ3_HUMAN	117246	dependent	IPI00217686
FUBP1	FUBP1_HUMAN	8880	independent	IPI00375441
FUBP1	FUBP1_HUMAN	8880	independent	IPI00641948
FUBP1	FUBP1_HUMAN	8880	independent	IPI00644386
FUBP1	FUBP1_HUMAN	8880	independent	IPI00853059
FUBP3	FUBP3_HUMAN	8939	independent	IPI00063245
FUBP3	FUBP3_HUMAN	8939	independent	IPI00377261
FUS	FUS_HUMAN	2521	independent	IPI00221354
FUS	FUS_HUMAN	2521	independent	IPI00260715
FXR1	FXR1_HUMAN	8087	independent	IPI00016249
FXR1	FXR1_HUMAN	8087	independent	IPI00479630
FXR1	FXR1_HUMAN	8087	independent	IPI00554715
FXR1	FXR1_HUMAN	8087	independent	IPI00791041
FXR1	FXR1_HUMAN	8087	independent	IPI00797887
FXR1	FXR1_HUMAN	8087	independent	IPI00945294
FXR1	FXR1_HUMAN	8087	independent	IPI00945697
FXR1	FXR1_HUMAN	8087	independent	IPI00945864
FXR1	FXR1_HUMAN	8087	independent	IPI00946077
FXR1	FXR1_HUMAN	8087	independent	IPI00946237
FXR1	FXR1_HUMAN	8087	independent	IPI00947266
FXR1	FXR1_HUMAN	8087	independent	IPI00947512
FXR2	FXR2_HUMAN	9513	dependent	IPI00016250
FYTTD1	UIF_HUMAN	84248	dependent	IPI00289907
FYTTD1	UIF_HUMAN	84248	dependent	IPI00927408
FYTTD1	UIF_HUMAN	84248	dependent	IPI00927445
FYTTD1	UIF_HUMAN	84248	dependent	IPI00947128
G3BP1	G3BP1_HUMAN	10146	independent	IPI00012442
G3BP1	G3BP1_HUMAN	10146	independent	IPI00442863
G3BP1	G3BP1_HUMAN	10146	independent	IPI00973731
G3BP1	G3BP1_HUMAN	10146	independent	IPI00973932
G3BP1	G3BP1_HUMAN	10146	independent	IPI00974560
G3BP1	G3BP1_HUMAN	10146	independent	IPI00979451
G3BP1	G3BP1_HUMAN	10146	independent	IPI00982147
G3BP1	G3BP1_HUMAN	10146	independent	IPI00982712
G3BP1	G3BP1_HUMAN	10146	independent	IPI00982785
G3BP1	G3BP1_HUMAN	10146	independent	IPI01011685
G3BP2	G3BP2_HUMAN	9908	independent	IPI00009057
G3BP2	G3BP2_HUMAN	9908	independent	IPI00179890
G3BP2	G3BP2_HUMAN	9908	independent	IPI00964602
G3BP2	G3BP2_HUMAN	9908	independent	IPI00965049
G3BP2	G3BP2_HUMAN	9908	independent	IPI00965308
G3BP2	G3BP2_HUMAN	9908	independent	IPI00966108
G3BP2	G3BP2_HUMAN	9908	independent	IPI00966366
G3BP2	G3BP2_HUMAN	9908	independent	IPI00966712
G3BP2	G3BP2_HUMAN	9908	independent	IPI00966981
G3BP2	G3BP2_HUMAN	9908	independent	IPI00967594
G3BP2	G3BP2_HUMAN	9908	independent	IPI00967913
G3BP2	G3BP2_HUMAN	9908	independent	IPI01019015
GAR1	GAR1_HUMAN	54433	dependent	IPI00302176
GAR1	GAR1_HUMAN	54433	dependent	IPI00607820
GIGYF2	PERQ2_HUMAN	26058	dependent	IPI00647635
GIGYF2	PERQ2_HUMAN	26058	dependent	IPI00784233
GIGYF2	PERQ2_HUMAN	26058	dependent	IPI00856036
GIGYF2	PERQ2_HUMAN	26058	dependent	IPI00910765
GIGYF2	PERQ2_HUMAN	26058	dependent	IPI00915868
GIGYF2	PERQ2_HUMAN	26058	dependent	IPI00915973
GIGYF2	PERQ2_HUMAN	26058	dependent	IPI00916026
GIGYF2	PERQ2_HUMAN	26058	dependent	IPI00916150
GIGYF2	PERQ2_HUMAN	26058	dependent	IPI00916261
GIGYF2	PERQ2_HUMAN	26058	dependent	IPI00916290
GIGYF2	PERQ2_HUMAN	26058	dependent	IPI00916384
GIGYF2	PERQ2_HUMAN	26058	dependent	IPI00916509
GIGYF2	PERQ2_HUMAN	26058	dependent	IPI00916832
GIGYF2	PERQ2_HUMAN	26058	dependent	IPI00916904
GIGYF2	PERQ2_HUMAN	26058	dependent	IPI00917031
GIGYF2	PERQ2_HUMAN	26058	dependent	IPI00917083
GIGYF2	PERQ2_HUMAN	26058	dependent	IPI00917359
GIGYF2	PERQ2_HUMAN	26058	dependent	IPI00917502
GIGYF2	PERQ2_HUMAN	26058	dependent	IPI00917620
GIGYF2	PERQ2_HUMAN	26058	dependent	IPI00917750
GIGYF2	PERQ2_HUMAN	26058	dependent	IPI00917756
GIGYF2	PERQ2_HUMAN	26058	dependent	IPI00917895
GNL2	NOG2_HUMAN	29889	dependent	IPI00015808
GNL3	GNL3_HUMAN	26354	dependent	IPI00003886
GNL3	GNL3_HUMAN	26354	dependent	IPI00306380
GNL3	GNL3_HUMAN	26354	dependent	IPI00798037
GNL3	GNL3_HUMAN	26354	dependent	IPI00945015
GNL3	GNL3_HUMAN	26354	dependent	IPI00946884
GNL3L	GNL3L_HUMAN	54552	dependent	IPI00005132
GPATCH4	GPTC4_HUMAN	54865	dependent	IPI00374476
GPATCH4	GPTC4_HUMAN	54865	dependent	IPI00445571
GPATCH4	GPTC4_HUMAN	54865	dependent	IPI00829835
GPATCH4	GPTC4_HUMAN	54865	dependent	IPI00978749
GPATCH4	GPTC4_HUMAN	54865	dependent	IPI00979357
GPATCH4	GPTC4_HUMAN	54865	dependent	IPI01008731
GPATCH4	GPTC4_HUMAN	54865	dependent	IPI01018649
GRSF1	GRSF1_HUMAN	2926	independent	IPI00478657
GRSF1	GRSF1_HUMAN	2926	independent	IPI00914953
GRSF1	GRSF1_HUMAN	2926	independent	IPI00979483
GTPBP4	NOG1_HUMAN	23560	dependent	IPI00385042
GTPBP4	NOG1_HUMAN	23560	dependent	IPI00645138
GTPBP4	NOG1_HUMAN	23560	dependent	IPI01014195
HACD2	HACD2_HUMAN	201562	dependent	IPI00384497
HACD2	HACD2_HUMAN	201562	dependent	IPI00947066
HAND2	HAND2_HUMAN	9464	dependent	IPI00029953
HDGFL1	HDGL1_HUMAN	154150	dependent	IPI00102259
HDLBP	VIGLN_HUMAN	3069	independent	IPI00022228
HDLBP	VIGLN_HUMAN	3069	independent	IPI00892548
HDLBP	VIGLN_HUMAN	3069	independent	IPI00892788
HDLBP	VIGLN_HUMAN	3069	independent	IPI00892886
HDLBP	VIGLN_HUMAN	3069	independent	IPI00893072
HDLBP	VIGLN_HUMAN	3069	independent	IPI00893195
HDLBP	VIGLN_HUMAN	3069	independent	IPI00893433
HDLBP	VIGLN_HUMAN	3069	independent	IPI00893626
HDLBP	VIGLN_HUMAN	3069	independent	IPI00893636
HDLBP	VIGLN_HUMAN	3069	independent	IPI00893773
HDLBP	VIGLN_HUMAN	3069	independent	IPI00893806
HDLBP	VIGLN_HUMAN	3069	independent	IPI00893892
HDLBP	VIGLN_HUMAN	3069	independent	IPI00894070
HDLBP	VIGLN_HUMAN	3069	independent	IPI00894200
HDLBP	VIGLN_HUMAN	3069	independent	IPI00894287
HDLBP	VIGLN_HUMAN	3069	independent	IPI00894372
HDLBP	VIGLN_HUMAN	3069	independent	IPI00894455
HDLBP	VIGLN_HUMAN	3069	independent	IPI00941714
HDLBP	VIGLN_HUMAN	3069	independent	IPI01019129
HDLBP	VIGLN_HUMAN	3069	independent	IPI01022281
HEATR1	HEAT1_HUMAN	55127	dependent	IPI00024279
HEATR1	HEAT1_HUMAN	55127	dependent	IPI00552253
HEATR1	HEAT1_HUMAN	55127	dependent	IPI00641437
HELZ2	HELZ2_HUMAN	85441	independent	IPI00249304
HELZ2	HELZ2_HUMAN	85441	independent	IPI00249305
HELZ2	HELZ2_HUMAN	85441	independent	IPI00736631
HIRIP3	HIRP3_HUMAN	8479	dependent	IPI00304875
HIRIP3	HIRP3_HUMAN	8479	dependent	IPI00413871
HNRNPA0	ROA0_HUMAN	10949	independent	IPI00011913
HNRNPA1	ROA1_HUMAN	3178	independent	IPI00215965
HNRNPA1	ROA1_HUMAN	3178	independent	IPI00465365
HNRNPA1	ROA1_HUMAN	3178	independent	IPI00644968
HNRNPA1	ROA1_HUMAN	3178	independent	IPI00797148
HNRNPA1	ROA1_HUMAN	3178	independent	IPI01021324
HNRNPA1	ROA1_HUMAN	3178	independent	IPI01022306
HNRNPA1	ROA1_HUMAN	3178	independent	IPI01022460
HNRNPA1	ROA1_HUMAN	3178	independent	IPI01022641
HNRNPA1L2	RA1L2_HUMAN	144983	dependent	IPI00879501
HNRNPA2B1	ROA2_HUMAN	3181	independent	IPI00396378
HNRNPA2B1	ROA2_HUMAN	3181	independent	IPI00414696
HNRNPA3	ROA3_HUMAN	220988	independent	IPI00419373
HNRNPA3	ROA3_HUMAN	220988	independent	IPI00455134
HNRNPAB	ROAA_HUMAN	3182	independent	IPI00106509
HNRNPAB	ROAA_HUMAN	3182	independent	IPI00329355
HNRNPAB	ROAA_HUMAN	3182	independent	IPI00334587
HNRNPAB	ROAA_HUMAN	3182	independent	IPI00334713
HNRNPAB	ROAA_HUMAN	3182	independent	IPI00964686
HNRNPAB	ROAA_HUMAN	3182	independent	IPI00964992
HNRNPAB	ROAA_HUMAN	3182	independent	IPI00966854
HNRNPC	HNRPC_HUMAN	3183	independent	IPI00216592
HNRNPC	HNRPC_HUMAN	3183	independent	IPI00477313
HNRNPC	HNRPC_HUMAN	3183	independent	IPI00759596
HNRNPC	HNRPC_HUMAN	3183	independent	IPI00759822
HNRNPC	HNRPC_HUMAN	3183	independent	IPI00909232
HNRNPC	HNRPC_HUMAN	3183	independent	IPI00910718
HNRNPCL1	HNRCL_HUMAN	343069	independent	IPI00027569
HNRNPD	HNRPD_HUMAN	3184	independent	IPI00028888
HNRNPD	HNRPD_HUMAN	3184	independent	IPI00220683
HNRNPD	HNRPD_HUMAN	3184	independent	IPI00220684
HNRNPD	HNRPD_HUMAN	3184	independent	IPI00220685
HNRNPD	HNRPD_HUMAN	3184	independent	IPI00963980
HNRNPD	HNRPD_HUMAN	3184	independent	IPI00965952
HNRNPD	HNRPD_HUMAN	3184	independent	IPI00967562
HNRNPD	HNRPD_HUMAN	3184	independent	IPI00967841
HNRNPD	HNRPD_HUMAN	3184	independent	IPI00968092
HNRNPD	HNRPD_HUMAN	3184	independent	IPI01012829
HNRNPD	HNRPD_HUMAN	3184	independent	IPI01014602
HNRNPDL	HNRDL_HUMAN	9987	independent	IPI00011274
HNRNPDL	HNRDL_HUMAN	9987	independent	IPI00045498
HNRNPDL	HNRDL_HUMAN	9987	independent	IPI00845282
HNRNPF	HNRPF_HUMAN	3185	independent	IPI00003881
HNRNPH1	HNRH1_HUMAN	3187	independent	IPI00013881
HNRNPH1	HNRH1_HUMAN	3187	independent	IPI00908896
HNRNPH1	HNRH1_HUMAN	3187	independent	IPI00963924
HNRNPH1	HNRH1_HUMAN	3187	independent	IPI00964237
HNRNPH1	HNRH1_HUMAN	3187	independent	IPI00964535
HNRNPH1	HNRH1_HUMAN	3187	independent	IPI00964846
HNRNPH1	HNRH1_HUMAN	3187	independent	IPI00965156
HNRNPH1	HNRH1_HUMAN	3187	independent	IPI00965435
HNRNPH1	HNRH1_HUMAN	3187	independent	IPI00966018
HNRNPH1	HNRH1_HUMAN	3187	independent	IPI00966932
HNRNPH1	HNRH1_HUMAN	3187	independent	IPI00967216
HNRNPH1	HNRH1_HUMAN	3187	independent	IPI00967535
HNRNPH1	HNRH1_HUMAN	3187	independent	IPI00967835
HNRNPH1	HNRH1_HUMAN	3187	independent	IPI00968132
HNRNPH1	HNRH1_HUMAN	3187	independent	IPI00974526
HNRNPH1	HNRH1_HUMAN	3187	independent	IPI00977852
HNRNPH1	HNRH1_HUMAN	3187	independent	IPI00981333
HNRNPH1	HNRH1_HUMAN	3187	independent	IPI00982782
HNRNPH1	HNRH1_HUMAN	3187	independent	IPI00983613
HNRNPH1	HNRH1_HUMAN	3187	independent	IPI00984925
HNRNPH2	HNRH2_HUMAN	3188	independent	IPI00026230
HNRNPH3	HNRH3_HUMAN	3189	independent	IPI00013877
HNRNPH3	HNRH3_HUMAN	3189	independent	IPI00216492
HNRNPH3	HNRH3_HUMAN	3189	independent	IPI00216493
HNRNPH3	HNRH3_HUMAN	3189	independent	IPI00216494
HNRNPH3	HNRH3_HUMAN	3189	independent	IPI00216495
HNRNPH3	HNRH3_HUMAN	3189	independent	IPI00216496
HNRNPH3	HNRH3_HUMAN	3189	independent	IPI00908651
HNRNPK	HNRPK_HUMAN	3190	independent	IPI00216049
HNRNPK	HNRPK_HUMAN	3190	independent	IPI00216746
HNRNPK	HNRPK_HUMAN	3190	independent	IPI00514561
HNRNPK	HNRPK_HUMAN	3190	independent	IPI00640296
HNRNPK	HNRPK_HUMAN	3190	independent	IPI00807545
HNRNPK	HNRPK_HUMAN	3190	independent	IPI00910458
HNRNPK	HNRPK_HUMAN	3190	independent	IPI01015770
HNRNPL	HNRPL_HUMAN	3191	independent	IPI00027834
HNRNPL	HNRPL_HUMAN	3191	independent	IPI01012071
HNRNPLL	HNRLL_HUMAN	92906	independent	IPI00103247
HNRNPLL	HNRLL_HUMAN	92906	independent	IPI00470410
HNRNPLL	HNRLL_HUMAN	92906	independent	IPI00479814
HNRNPLL	HNRLL_HUMAN	92906	independent	IPI00554613
HNRNPLL	HNRLL_HUMAN	92906	independent	IPI00745396
HNRNPLL	HNRLL_HUMAN	92906	independent	IPI00915954
HNRNPM	HNRPM_HUMAN	4670	independent	IPI00171903
HNRNPM	HNRPM_HUMAN	4670	independent	IPI00383296
HNRNPR	HNRPR_HUMAN	10236	independent	IPI00012074
HNRNPR	HNRPR_HUMAN	10236	independent	IPI00856037
HNRNPR	HNRPR_HUMAN	10236	independent	IPI00856038
HNRNPR	HNRPR_HUMAN	10236	independent	IPI00910614
HNRNPR	HNRPR_HUMAN	10236	independent	IPI00941649
HNRNPU	HNRPU_HUMAN	3192	independent	IPI00479217
HNRNPU	HNRPU_HUMAN	3192	independent	IPI00644079
HNRNPU	HNRPU_HUMAN	3192	independent	IPI00883857
HNRNPUL1	HNRL1_HUMAN	11100	independent	IPI00013070
HNRNPUL1	HNRL1_HUMAN	11100	independent	IPI00167147
HNRNPUL1	HNRL1_HUMAN	11100	independent	IPI00386971
HNRNPUL1	HNRL1_HUMAN	11100	independent	IPI00402391
HNRNPUL1	HNRL1_HUMAN	11100	independent	IPI00736859
HNRNPUL1	HNRL1_HUMAN	11100	independent	IPI01009355
HNRNPUL2	HNRL2_HUMAN	221092	independent	IPI00456887
IFI16	IF16_HUMAN	3428	dependent	IPI00003443
IFI16	IF16_HUMAN	3428	dependent	IPI00217474
IFI16	IF16_HUMAN	3428	dependent	IPI00217475
IFI16	IF16_HUMAN	3428	dependent	IPI00384836
IFI16	IF16_HUMAN	3428	dependent	IPI00909417
IGF2BP2	IF2B2_HUMAN	10644	independent	IPI00179713
IGF2BP2	IF2B2_HUMAN	10644	independent	IPI00180983
IGF2BP2	IF2B2_HUMAN	10644	independent	IPI00743914
IGF2BP2	IF2B2_HUMAN	10644	independent	IPI00922068
IGF2BP2	IF2B2_HUMAN	10644	independent	IPI00953576
IGF2BP3	IF2B3_HUMAN	10643	independent	IPI00165467
IGF2BP3	IF2B3_HUMAN	10643	independent	IPI00658000
IGF2BP3	IF2B3_HUMAN	10643	independent	IPI00953668
ILF2	ILF2_HUMAN	3608	dependent	IPI00005198
ILF3	ILF3_HUMAN	3609	independent	IPI00219330
ILF3	ILF3_HUMAN	3609	independent	IPI00298788
ILF3	ILF3_HUMAN	3609	independent	IPI00298789
ILF3	ILF3_HUMAN	3609	independent	IPI00414335
ILF3	ILF3_HUMAN	3609	independent	IPI00556173
ILF3	ILF3_HUMAN	3609	independent	IPI01018179
IMP3	IMP3_HUMAN	55272	dependent	IPI00019488
IMP4	IMP4_HUMAN	92856	dependent	IPI00181116
IMP4	IMP4_HUMAN	92856	dependent	IPI00916398
IMP4	IMP4_HUMAN	92856	dependent	IPI00916569
IMP4	IMP4_HUMAN	92856	dependent	IPI00916691
IMP4	IMP4_HUMAN	92856	dependent	IPI00917458
KHDRBS1	KHDR1_HUMAN	10657	independent	IPI00008575
KHDRBS1	KHDR1_HUMAN	10657	independent	IPI00082310
KHDRBS1	KHDR1_HUMAN	10657	independent	IPI00385834
KHSRP	FUBP2_HUMAN	8570	independent	IPI00479786
KHSRP	FUBP2_HUMAN	8570	independent	IPI00855957
KRR1	KRR1_HUMAN	11103	dependent	IPI00156032
KRR1	KRR1_HUMAN	11103	dependent	IPI00942884
LARP1	LARP1_HUMAN	23367	independent	IPI00185919
LARP1	LARP1_HUMAN	23367	independent	IPI00411690
LARP1	LARP1_HUMAN	23367	independent	IPI00977919
LARP1	LARP1_HUMAN	23367	independent	IPI00979406
LARP4	LARP4_HUMAN	113251	independent	IPI00043638
LARP4	LARP4_HUMAN	113251	independent	IPI00395347
LARP4	LARP4_HUMAN	113251	independent	IPI00418689
LARP4	LARP4_HUMAN	113251	independent	IPI00797384
LARP4	LARP4_HUMAN	113251	independent	IPI00955019
LARP4	LARP4_HUMAN	113251	independent	IPI00982060
LARP4	LARP4_HUMAN	113251	independent	IPI00983001
LARP4	LARP4_HUMAN	113251	independent	IPI01012507
LARP4	LARP4_HUMAN	113251	independent	IPI01020766
LARP4	LARP4_HUMAN	113251	independent	IPI01021003
LARP4	LARP4_HUMAN	113251	independent	IPI01021108
LARP4	LARP4_HUMAN	113251	independent	IPI01021443
LARP4	LARP4_HUMAN	113251	independent	IPI01021803
LARP7	LARP7_HUMAN	51574	dependent	IPI00294742
LARP7	LARP7_HUMAN	51574	dependent	IPI00395536
LARP7	LARP7_HUMAN	51574	dependent	IPI00964251
LARP7	LARP7_HUMAN	51574	dependent	IPI00964944
LARP7	LARP7_HUMAN	51574	dependent	IPI00965610
LARP7	LARP7_HUMAN	51574	dependent	IPI00966387
LARP7	LARP7_HUMAN	51574	dependent	IPI00966774
LARP7	LARP7_HUMAN	51574	dependent	IPI00967495
LAS1L	LAS1L_HUMAN	81887	dependent	IPI00009917
LAS1L	LAS1L_HUMAN	81887	dependent	IPI00152781
LAS1L	LAS1L_HUMAN	81887	dependent	IPI00641990
LAS1L	LAS1L_HUMAN	81887	dependent	IPI00645869
LLPH	LLPH_HUMAN	84298	dependent	IPI00031615
LRPPRC	LPPRC_HUMAN	10128	independent	IPI00783271
LRPPRC	LPPRC_HUMAN	10128	independent	IPI00917676
LRPPRC	LPPRC_HUMAN	10128	independent	IPI00917844
LSM14A	LS14A_HUMAN	26065	independent	IPI00410590
LSM14A	LS14A_HUMAN	26065	independent	IPI00478300
LSM14A	LS14A_HUMAN	26065	independent	IPI00910714
LSM2	LSM2_HUMAN	57819	independent	IPI00032460
LSM6	LSM6_HUMAN	11157	independent	IPI00001146
LSM8	NAA38_HUMAN	51691	independent	IPI00219871
LSM8	NAA38_HUMAN	51691	independent	IPI00924467
LSM8	NAA38_HUMAN	51691	independent	IPI00924695
LSM8	NAA38_HUMAN	51691	independent	IPI00924875
LYAR	LYAR_HUMAN	55646	dependent	IPI00015838
LYAR	LYAR_HUMAN	55646	dependent	IPI00965902
MACF1	MACF1_HUMAN	23499	independent	IPI00256861
MACF1	MACF1_HUMAN	23499	independent	IPI00432363
MACF1	MACF1_HUMAN	23499	independent	IPI00478226
MACF1	MACF1_HUMAN	23499	independent	IPI00550385
MACF1	MACF1_HUMAN	23499	independent	IPI00908583
MACF1	MACF1_HUMAN	23499	independent	IPI00909989
MACF1	MACF1_HUMAN	23499	independent	IPI00977500
MACF1	MACF1_HUMAN	23499	independent	IPI00983467
MACF1	MACF1_HUMAN	23499	independent	IPI01009065
MACF1	MACF1_HUMAN	23499	independent	IPI01012199
MACF1	MACF1_HUMAN	23499	independent	IPI01018834
MACF1	MACF1_HUMAN	23499	independent	IPI01018940
MAK16	MAK16_HUMAN	84549	dependent	IPI00332428
MATR3	MATR3_HUMAN	9782	independent	IPI00017297
MATR3	MATR3_HUMAN	9782	independent	IPI00789551
MATR3	MATR3_HUMAN	9782	independent	IPI00964018
MATR3	MATR3_HUMAN	9782	independent	IPI00964253
MATR3	MATR3_HUMAN	9782	independent	IPI00964504
MATR3	MATR3_HUMAN	9782	independent	IPI00964854
MATR3	MATR3_HUMAN	9782	independent	IPI00965324
MATR3	MATR3_HUMAN	9782	independent	IPI00965961
MATR3	MATR3_HUMAN	9782	independent	IPI00966123
MATR3	MATR3_HUMAN	9782	independent	IPI00966369
MATR3	MATR3_HUMAN	9782	independent	IPI00966417
MATR3	MATR3_HUMAN	9782	independent	IPI00966636
MATR3	MATR3_HUMAN	9782	independent	IPI00966657
MATR3	MATR3_HUMAN	9782	independent	IPI00967052
MATR3	MATR3_HUMAN	9782	independent	IPI00967370
MATR3	MATR3_HUMAN	9782	independent	IPI00967721
MATR3	MATR3_HUMAN	9782	independent	IPI00967777
MATR3	MATR3_HUMAN	9782	independent	IPI00968041
MATR3	MATR3_HUMAN	9782	independent	IPI00968288
MBNL1	MBNL1_HUMAN	4154	independent	IPI00021692
MBNL1	MBNL1_HUMAN	4154	independent	IPI00178116
MBNL1	MBNL1_HUMAN	4154	independent	IPI00218263
MBNL1	MBNL1_HUMAN	4154	independent	IPI00384261
MBNL1	MBNL1_HUMAN	4154	independent	IPI00395357
MBNL1	MBNL1_HUMAN	4154	independent	IPI00410205
MBNL1	MBNL1_HUMAN	4154	independent	IPI00410279
MBNL1	MBNL1_HUMAN	4154	independent	IPI00945690
MBNL1	MBNL1_HUMAN	4154	independent	IPI00946701
MBNL1	MBNL1_HUMAN	4154	independent	IPI00946942
MBNL1	MBNL1_HUMAN	4154	independent	IPI00946978
MBNL1	MBNL1_HUMAN	4154	independent	IPI00984486
MDN1	MDN1_HUMAN	23195	dependent	IPI00167941
MDN1	MDN1_HUMAN	23195	dependent	IPI00514014
METTL16	MET16_HUMAN	79066	dependent	IPI00163391
METTL16	MET16_HUMAN	79066	dependent	IPI00792378
METTL16	MET16_HUMAN	79066	dependent	IPI01009560
MFAP1	MFAP1_HUMAN	4236	independent	IPI00022790
MGST3	MGST3_HUMAN	4259	dependent	IPI00024266
MGST3	MGST3_HUMAN	4259	dependent	IPI00647044
MKI67	KI67_HUMAN	4288	dependent	IPI00004233
MKI67	KI67_HUMAN	4288	dependent	IPI00413173
MOV10	MOV10_HUMAN	4343	independent	IPI00444452
MOV10	MOV10_HUMAN	4343	independent	IPI00444454
MOV10	MOV10_HUMAN	4343	independent	IPI00646886
MOV10	MOV10_HUMAN	4343	independent	IPI00843786
MOV10	MOV10_HUMAN	4343	independent	IPI00929442
MPHOSPH10	MPP10_HUMAN	10199	dependent	IPI00012149
MRPL13	RM13_HUMAN	28998	independent	IPI00022403
MRPL13	RM13_HUMAN	28998	independent	IPI00793491
MRPL13	RM13_HUMAN	28998	independent	IPI01011492
MRPL37	RM37_HUMAN	51253	independent	IPI00162330
MRPL37	RM37_HUMAN	51253	independent	IPI00395764
MRPL43	RM43_HUMAN	84545	independent	IPI00334579
MRPL43	RM43_HUMAN	84545	independent	IPI00428285
MRPL43	RM43_HUMAN	84545	independent	IPI00428286
MRPL43	RM43_HUMAN	84545	independent	IPI00428287
MRPL43	RM43_HUMAN	84545	independent	IPI00428288
MRPL43	RM43_HUMAN	84545	independent	IPI00640672
MRPL43	RM43_HUMAN	84545	independent	IPI00645648
MRPL57	RT63_HUMAN	78988	dependent	IPI00031485
MRPS23	RT23_HUMAN	51649	independent	IPI00032881
MRPS5	RT05_HUMAN	64969	independent	IPI00169400
MRPS5	RT05_HUMAN	64969	independent	IPI00215872
MSI2	MSI2H_HUMAN	124540	independent	IPI00073713
MSI2	MSI2H_HUMAN	124540	independent	IPI00167806
MSI2	MSI2H_HUMAN	124540	independent	IPI00455161
MSI2	MSI2H_HUMAN	124540	independent	IPI00908857
MSI2	MSI2H_HUMAN	124540	independent	IPI00910884
MTDH	LYRIC_HUMAN	92140	independent	IPI00328715
MTDH	LYRIC_HUMAN	92140	independent	IPI00973911
MYADM	MYADM_HUMAN	91663	dependent	IPI00102685
MYADM	MYADM_HUMAN	91663	dependent	IPI00385137
MYADM	MYADM_HUMAN	91663	dependent	IPI00657979
MYADM	MYADM_HUMAN	91663	dependent	IPI00658209
MYADM	MYADM_HUMAN	91663	dependent	IPI00878612
MYBBP1A	MBB1A_HUMAN	10514	dependent	IPI00005024
MYBBP1A	MBB1A_HUMAN	10514	dependent	IPI00607584
MYEF2	MYEF2_HUMAN	50804	independent	IPI00292940
MYEF2	MYEF2_HUMAN	50804	independent	IPI00386418
MYEF2	MYEF2_HUMAN	50804	independent	IPI00555833
MYEF2	MYEF2_HUMAN	50804	independent	IPI00555987
NAT10	NAT10_HUMAN	55226	dependent	IPI00300127
NAT10	NAT10_HUMAN	55226	dependent	IPI00921516
NAT10	NAT10_HUMAN	55226	dependent	IPI00980781
NAT10	NAT10_HUMAN	55226	dependent	IPI00982584
NCL	NUCL_HUMAN	4691	dependent	IPI00183526
NCL	NUCL_HUMAN	4691	dependent	IPI00604620
NCL	NUCL_HUMAN	4691	dependent	IPI00916036
NCL	NUCL_HUMAN	4691	dependent	IPI00916991
NCL	NUCL_HUMAN	4691	dependent	IPI00917429
NGDN	NGDN_HUMAN	25983	dependent	IPI00000162
NGDN	NGDN_HUMAN	25983	dependent	IPI00410360
NHP2	NHP2_HUMAN	55651	dependent	IPI00041325
NHP2	NHP2_HUMAN	55651	dependent	IPI00966700
NHP2	NHP2_HUMAN	55651	dependent	IPI00968276
NIFK	MK67I_HUMAN	84365	dependent	IPI00154590
NIFK	MK67I_HUMAN	84365	dependent	IPI00916663
NIFK	MK67I_HUMAN	84365	dependent	IPI00916807
NKRF	NKRF_HUMAN	55922	dependent	IPI00005675
NKRF	NKRF_HUMAN	55922	dependent	IPI00956309
NOC2L	NOC2L_HUMAN	26155	dependent	IPI00411886
NOC3L	NOC3L_HUMAN	64318	dependent	IPI00102815
NOC3L	NOC3L_HUMAN	64318	dependent	IPI00843861
NOC3L	NOC3L_HUMAN	64318	dependent	IPI01011390
NOC4L	NOC4L_HUMAN	79050	dependent	IPI00031661
NOC4L	NOC4L_HUMAN	79050	dependent	IPI01014662
NOC4L	NOC4L_HUMAN	79050	dependent	IPI01015153
NOL10	NOL10_HUMAN	79954	dependent	IPI00016494
NOL10	NOL10_HUMAN	79954	dependent	IPI00029513
NOL10	NOL10_HUMAN	79954	dependent	IPI00640783
NOL11	NOL11_HUMAN	25926	dependent	IPI00303813
NOL6	NOL6_HUMAN	65083	dependent	IPI00152890
NOL6	NOL6_HUMAN	65083	dependent	IPI00157845
NOL6	NOL6_HUMAN	65083	dependent	IPI00291903
NOL6	NOL6_HUMAN	65083	dependent	IPI00556218
NOL7	NOL7_HUMAN	51406	dependent	IPI00007729
NOL7	NOL7_HUMAN	51406	dependent	IPI00607836
NOL8	NOL8_HUMAN	55035	dependent	IPI00161085
NOL8	NOL8_HUMAN	55035	dependent	IPI00480054
NOL8	NOL8_HUMAN	55035	dependent	IPI00645407
NOL8	NOL8_HUMAN	55035	dependent	IPI00940050
NOL8	NOL8_HUMAN	55035	dependent	IPI00941146
NOL8	NOL8_HUMAN	55035	dependent	IPI01010743
NOL8	NOL8_HUMAN	55035	dependent	IPI01012406
NOL8	NOL8_HUMAN	55035	dependent	IPI01012415
NOL8	NOL8_HUMAN	55035	dependent	IPI01013149
NOL8	NOL8_HUMAN	55035	dependent	IPI01013607
NOL8	NOL8_HUMAN	55035	dependent	IPI01013620
NOL8	NOL8_HUMAN	55035	dependent	IPI01014020
NOL8	NOL8_HUMAN	55035	dependent	IPI01014713
NOL8	NOL8_HUMAN	55035	dependent	IPI01015201
NOL8	NOL8_HUMAN	55035	dependent	IPI01015620
NOL9	NOL9_HUMAN	79707	dependent	IPI00002902
NOLC1	NOLC1_HUMAN	9221	dependent	IPI00216654
NOLC1	NOLC1_HUMAN	9221	dependent	IPI00292387
NOLC1	NOLC1_HUMAN	9221	dependent	IPI00908873
NOM1	NOM1_HUMAN	64434	dependent	IPI00145593
NONO	NONO_HUMAN	4841	independent	IPI00304596
NONO	NONO_HUMAN	4841	independent	IPI00645010
NONO	NONO_HUMAN	4841	independent	IPI00645966
NONO	NONO_HUMAN	4841	independent	IPI00646520
NONO	NONO_HUMAN	4841	independent	IPI00647641
NONO	NONO_HUMAN	4841	independent	IPI00922367
NOP14	NOP14_HUMAN	8602	dependent	IPI00022613
NOP14	NOP14_HUMAN	8602	dependent	IPI00743803
NOP14	NOP14_HUMAN	8602	dependent	IPI00968217
NOP16	NOP16_HUMAN	51491	dependent	IPI00032849
NOP16	NOP16_HUMAN	51491	dependent	IPI00964448
NOP16	NOP16_HUMAN	51491	dependent	IPI00964700
NOP16	NOP16_HUMAN	51491	dependent	IPI00967210
NOP16	NOP16_HUMAN	51491	dependent	IPI00968032
NOP2	NOP2_HUMAN	4839	dependent	IPI00294891
NOP2	NOP2_HUMAN	4839	dependent	IPI00872909
NOP2	NOP2_HUMAN	4839	dependent	IPI01009533
NOP2	NOP2_HUMAN	4839	dependent	IPI01009814
NOP2	NOP2_HUMAN	4839	dependent	IPI01009991
NOP2	NOP2_HUMAN	4839	dependent	IPI01010255
NOP2	NOP2_HUMAN	4839	dependent	IPI01011199
NOP2	NOP2_HUMAN	4839	dependent	IPI01015572
NOP53	GSCR2_HUMAN	29997	dependent	IPI00024567
NOP56	NOP56_HUMAN	10528	dependent	IPI00411937
NOP56	NOP56_HUMAN	10528	dependent	IPI00552225
NOP58	NOP58_HUMAN	51602	dependent	IPI00006379
NOP58	NOP58_HUMAN	51602	dependent	IPI00917530
NOP9	NOP9_HUMAN	161424	dependent	IPI00216999
NOP9	NOP9_HUMAN	161424	dependent	IPI00793080
NPM1	NPM_HUMAN	4869	dependent	IPI00220740
NPM1	NPM_HUMAN	4869	dependent	IPI00549248
NPM1	NPM_HUMAN	4869	dependent	IPI00658013
NPM1	NPM_HUMAN	4869	dependent	IPI00983818
NPM1	NPM_HUMAN	4869	dependent	IPI00985410
NSA2	NSA2_HUMAN	10412	dependent	IPI00007089
NSUN2	NSUN2_HUMAN	54888	dependent	IPI00306369
NSUN2	NSUN2_HUMAN	54888	dependent	IPI00966877
NSUN2	NSUN2_HUMAN	54888	dependent	IPI00966946
NSUN5	NSUN5_HUMAN	55695	dependent	IPI00101659
NSUN5	NSUN5_HUMAN	55695	dependent	IPI00164154
NSUN5	NSUN5_HUMAN	55695	dependent	IPI00807684
NSUN5	NSUN5_HUMAN	55695	dependent	IPI00902543
NSUN5	NSUN5_HUMAN	55695	dependent	IPI00910694
NUFIP2	NUFP2_HUMAN	57532	independent	IPI00002349
NUFIP2	NUFP2_HUMAN	57532	independent	IPI00828018
OS9	OS9_HUMAN	10956	independent	IPI00186581
OS9	OS9_HUMAN	10956	independent	IPI00329760
OS9	OS9_HUMAN	10956	independent	IPI00398855
OS9	OS9_HUMAN	10956	independent	IPI00604451
OS9	OS9_HUMAN	10956	independent	IPI00784387
OS9	OS9_HUMAN	10956	independent	IPI00791882
OS9	OS9_HUMAN	10956	independent	IPI00793206
OS9	OS9_HUMAN	10956	independent	IPI00873981
OS9	OS9_HUMAN	10956	independent	IPI01021633
OS9	OS9_HUMAN	10956	independent	IPI01021849
OS9	OS9_HUMAN	10956	independent	IPI01022033
OS9	OS9_HUMAN	10956	independent	IPI01022182
OS9	OS9_HUMAN	10956	independent	IPI01022322
PA2G4	PA2G4_HUMAN	5036	independent	IPI00299000
PA2G4	PA2G4_HUMAN	5036	independent	IPI01022476
PA2G4	PA2G4_HUMAN	5036	independent	IPI01022806
PA2G4	PA2G4_HUMAN	5036	independent	IPI01022945
PABPC1	PABP1_HUMAN	26986	independent	IPI00008524
PABPC1	PABP1_HUMAN	26986	independent	IPI00410017
PABPC1	PABP1_HUMAN	26986	independent	IPI00909378
PABPC1	PABP1_HUMAN	26986	independent	IPI00975929
PABPC1	PABP1_HUMAN	26986	independent	IPI00977833
PABPC1	PABP1_HUMAN	26986	independent	IPI00978377
PABPC1	PABP1_HUMAN	26986	independent	IPI00979703
PABPC1	PABP1_HUMAN	26986	independent	IPI00980706
PABPC1	PABP1_HUMAN	26986	independent	IPI00983093
PABPC1	PABP1_HUMAN	26986	independent	IPI00984994
PABPC1	PABP1_HUMAN	26986	independent	IPI01013146
PABPC4	PABP4_HUMAN	8761	independent	IPI00012726
PABPC4	PABP4_HUMAN	8761	independent	IPI00555747
PABPC4	PABP4_HUMAN	8761	independent	IPI00642904
PABPC4	PABP4_HUMAN	8761	independent	IPI00642944
PABPC4	PABP4_HUMAN	8761	independent	IPI00644016
PABPC4L	PAB4L_HUMAN	132430	independent	IPI00885166
PABPN1	PABP2_HUMAN	8106	independent	IPI00005792
PABPN1	PABP2_HUMAN	8106	independent	IPI00414963
PARP1	PARP1_HUMAN	142	dependent	IPI00449049
PARP1	PARP1_HUMAN	142	dependent	IPI00477173
PARP1	PARP1_HUMAN	142	dependent	IPI00478427
PCBP1	PCBP1_HUMAN	5093	independent	IPI00016610
PCBP2	PCBP2_HUMAN	5094	independent	IPI00012066
PCBP2	PCBP2_HUMAN	5094	independent	IPI00216689
PCBP2	PCBP2_HUMAN	5094	independent	IPI00470509
PCBP2	PCBP2_HUMAN	5094	independent	IPI00791223
PCBP2	PCBP2_HUMAN	5094	independent	IPI00796337
PCBP2	PCBP2_HUMAN	5094	independent	IPI00900327
PCBP2	PCBP2_HUMAN	5094	independent	IPI01009186
PCBP2	PCBP2_HUMAN	5094	independent	IPI01020805
PCBP2	PCBP2_HUMAN	5094	independent	IPI01021049
PCBP2	PCBP2_HUMAN	5094	independent	IPI01021216
PCBP2	PCBP2_HUMAN	5094	independent	IPI01021465
PCBP2	PCBP2_HUMAN	5094	independent	IPI01022190
PCBP2	PCBP2_HUMAN	5094	independent	IPI01022901
PCLO	PCLO_HUMAN	27445	dependent	IPI00411656
PCLO	PCLO_HUMAN	27445	dependent	IPI00515102
PCLO	PCLO_HUMAN	27445	dependent	IPI00789624
PCLO	PCLO_HUMAN	27445	dependent	IPI00843855
PCLO	PCLO_HUMAN	27445	dependent	IPI00903099
PCLO	PCLO_HUMAN	27445	dependent	IPI00968106
PCLO	PCLO_HUMAN	27445	dependent	IPI01014960
PDCD11	RRP5_HUMAN	22984	dependent	IPI00400922
PEBP1	PEBP1_HUMAN	5037	independent	IPI00219446
PEBP1	PEBP1_HUMAN	5037	independent	IPI00908746
PES1	PESC_HUMAN	23481	dependent	IPI00003768
PES1	PESC_HUMAN	23481	dependent	IPI00554461
PES1	PESC_HUMAN	23481	dependent	IPI00854683
PES1	PESC_HUMAN	23481	dependent	IPI00878536
PES1	PESC_HUMAN	23481	dependent	IPI00879039
PHB	PHB_HUMAN	5245	dependent	IPI00017334
PHB	PHB_HUMAN	5245	dependent	IPI00791634
PHB	PHB_HUMAN	5245	dependent	IPI00909721
PHB	PHB_HUMAN	5245	dependent	IPI00977506
PHB	PHB_HUMAN	5245	dependent	IPI01011045
PHB	PHB_HUMAN	5245	dependent	IPI01011461
PNN	PININ_HUMAN	5411	independent	IPI00002649
PNN	PININ_HUMAN	5411	independent	IPI00789041
PNO1	PNO1_HUMAN	56902	dependent	IPI00024524
PNO1	PNO1_HUMAN	56902	dependent	IPI00915874
POLDIP3	PDIP3_HUMAN	84271	independent	IPI00429180
POLDIP3	PDIP3_HUMAN	84271	independent	IPI00440688
POLDIP3	PDIP3_HUMAN	84271	independent	IPI00440689
POLDIP3	PDIP3_HUMAN	84271	independent	IPI00877685
POLDIP3	PDIP3_HUMAN	84271	independent	IPI00878135
POLDIP3	PDIP3_HUMAN	84271	independent	IPI00940039
POP1	POP1_HUMAN	10940	dependent	IPI00293331
POP1	POP1_HUMAN	10940	dependent	IPI00975761
PPAN	SSF1_HUMAN	56342	dependent	IPI00219793
PPAN	SSF1_HUMAN	56342	dependent	IPI00329590
PPAN	SSF1_HUMAN	56342	dependent	IPI00853335
PPAN	SSF1_HUMAN	56342	dependent	IPI00853458
PPAN	SSF1_HUMAN	56342	dependent	IPI00876873
PPAN	SSF1_HUMAN	56342	dependent	IPI00926444
PPIE	PPIE_HUMAN	10450	dependent	IPI00009316
PPIE	PPIE_HUMAN	10450	dependent	IPI00220188
PPIE	PPIE_HUMAN	10450	dependent	IPI00514173
PPIE	PPIE_HUMAN	10450	dependent	IPI00514708
PPIE	PPIE_HUMAN	10450	dependent	IPI00977574
PPIE	PPIE_HUMAN	10450	dependent	IPI00978978
PPIE	PPIE_HUMAN	10450	dependent	IPI00983184
PPIE	PPIE_HUMAN	10450	dependent	IPI00985437
PPIL4	PPIL4_HUMAN	85313	dependent	IPI00513891
PPIL4	PPIL4_HUMAN	85313	dependent	IPI00642862
PRDM8	PRDM8_HUMAN	56978	dependent	IPI00876899
PRDM8	PRDM8_HUMAN	56978	dependent	IPI00914570
PRDX1	PRDX1_HUMAN	5052	dependent	IPI00000874
PRKDC	PRKDC_HUMAN	5591	independent	IPI00296337
PRKDC	PRKDC_HUMAN	5591	independent	IPI00376215
PRPF8	PRP8_HUMAN	10594	independent	IPI00007928
PRRC2A	PRC2A_HUMAN	7916	independent	IPI00010700
PRRC2A	PRC2A_HUMAN	7916	independent	IPI00084746
PRRC2A	PRC2A_HUMAN	7916	independent	IPI00642817
PRRC2A	PRC2A_HUMAN	7916	independent	IPI00885161
PRRC2C	PRC2C_HUMAN	23215	independent	IPI00083708
PRRC2C	PRC2C_HUMAN	23215	independent	IPI00148247
PRRC2C	PRC2C_HUMAN	23215	independent	IPI00739117
PRRC2C	PRC2C_HUMAN	23215	independent	IPI00902898
PRRC2C	PRC2C_HUMAN	23215	independent	IPI00941219
PRRC2C	PRC2C_HUMAN	23215	independent	IPI01014089
PRRC2C	PRC2C_HUMAN	23215	independent	IPI01014173
PSPC1	PSPC1_HUMAN	55269	independent	IPI00103525
PSPC1	PSPC1_HUMAN	55269	independent	IPI00395775
PTBP1	PTBP1_HUMAN	5725	independent	IPI00179964
PTBP1	PTBP1_HUMAN	5725	independent	IPI00183626
PTBP1	PTBP1_HUMAN	5725	independent	IPI00334175
PTBP1	PTBP1_HUMAN	5725	independent	IPI00413691
PTBP3	PTBP3_HUMAN	9991	independent	IPI00159072
PTBP3	PTBP3_HUMAN	9991	independent	IPI00384710
PTBP3	PTBP3_HUMAN	9991	independent	IPI00470879
PTBP3	PTBP3_HUMAN	9991	independent	IPI00640632
PTBP3	PTBP3_HUMAN	9991	independent	IPI00915287
PTBP3	PTBP3_HUMAN	9991	independent	IPI00915299
PTBP3	PTBP3_HUMAN	9991	independent	IPI00915400
PTCD3	PTCD3_HUMAN	55037	independent	IPI00783302
PTCD3	PTCD3_HUMAN	55037	independent	IPI00867557
PTCD3	PTCD3_HUMAN	55037	independent	IPI00908450
PTCD3	PTCD3_HUMAN	55037	independent	IPI00915945
PTCD3	PTCD3_HUMAN	55037	independent	IPI00917395
PUF60	PUF60_HUMAN	22827	independent	IPI00069750
PUF60	PUF60_HUMAN	22827	independent	IPI00100716
PUF60	PUF60_HUMAN	22827	independent	IPI00788826
PUF60	PUF60_HUMAN	22827	independent	IPI00797595
PUF60	PUF60_HUMAN	22827	independent	IPI00855912
PUF60	PUF60_HUMAN	22827	independent	IPI00856076
PUF60	PUF60_HUMAN	22827	independent	IPI00976817
PUF60	PUF60_HUMAN	22827	independent	IPI00983055
PUF60	PUF60_HUMAN	22827	independent	IPI00984548
PUF60	PUF60_HUMAN	22827	independent	IPI00985156
PUM1	PUM1_HUMAN	9698	independent	IPI00032355
PUM1	PUM1_HUMAN	9698	independent	IPI00551014
PUM1	PUM1_HUMAN	9698	independent	IPI00646054
PUM1	PUM1_HUMAN	9698	independent	IPI00909786
PUM1	PUM1_HUMAN	9698	independent	IPI00939543
PUM1	PUM1_HUMAN	9698	independent	IPI00941189
PUM1	PUM1_HUMAN	9698	independent	IPI00941275
PUM1	PUM1_HUMAN	9698	independent	IPI00978721
PUM1	PUM1_HUMAN	9698	independent	IPI00979329
PUM1	PUM1_HUMAN	9698	independent	IPI00985256
PUM2	PUM2_HUMAN	23369	independent	IPI00022184
PUM2	PUM2_HUMAN	23369	independent	IPI00398749
PUM2	PUM2_HUMAN	23369	independent	IPI00398750
PUM2	PUM2_HUMAN	23369	independent	IPI00892647
PUM2	PUM2_HUMAN	23369	independent	IPI00892704
PUM2	PUM2_HUMAN	23369	independent	IPI00892928
PUM2	PUM2_HUMAN	23369	independent	IPI00893277
PUM2	PUM2_HUMAN	23369	independent	IPI01009448
PUM3	K0020_HUMAN	9933	dependent	IPI00791325
PURA	PURA_HUMAN	5813	independent	IPI00023591
PURB	PURB_HUMAN	5814	independent	IPI00045051
PWP2	PWP2_HUMAN	5822	dependent	IPI00300078
PWP2	PWP2_HUMAN	5822	dependent	IPI00797937
R3HDM1	R3HD1_HUMAN	23518	independent	IPI00031498
R3HDM1	R3HD1_HUMAN	23518	independent	IPI00332932
R3HDM1	R3HD1_HUMAN	23518	independent	IPI00847498
R3HDM1	R3HD1_HUMAN	23518	independent	IPI00915883
R3HDM1	R3HD1_HUMAN	23518	independent	IPI00916703
R3HDM1	R3HD1_HUMAN	23518	independent	IPI00916859
RALY	RALY_HUMAN	22913	independent	IPI00011268
RALY	RALY_HUMAN	22913	independent	IPI00216044
RALY	RALY_HUMAN	22913	independent	IPI00514496
RALY	RALY_HUMAN	22913	independent	IPI00640938
RALY	RALY_HUMAN	22913	independent	IPI00641351
RALY	RALY_HUMAN	22913	independent	IPI00642213
RALYL	RALYL_HUMAN	138046	independent	IPI00166137
RALYL	RALYL_HUMAN	138046	independent	IPI00790685
RALYL	RALYL_HUMAN	138046	independent	IPI00978453
RALYL	RALYL_HUMAN	138046	independent	IPI00980380
RALYL	RALYL_HUMAN	138046	independent	IPI00981789
RALYL	RALYL_HUMAN	138046	independent	IPI00982680
RALYL	RALYL_HUMAN	138046	independent	IPI01013944
RAN	RAN_HUMAN	5901	dependent	IPI00643041
RAN	RAN_HUMAN	5901	dependent	IPI00795109
RAN	RAN_HUMAN	5901	dependent	IPI00795671
RAN	RAN_HUMAN	5901	dependent	IPI01011282
RAVER1	RAVR1_HUMAN	125950	independent	IPI00217661
RAVER1	RAVR1_HUMAN	125950	independent	IPI00217670
RAVER1	RAVR1_HUMAN	125950	independent	IPI00643760
RBFOX2	RFOX2_HUMAN	23543	independent	IPI00011618
RBFOX2	RFOX2_HUMAN	23543	independent	IPI00179299
RBFOX2	RFOX2_HUMAN	23543	independent	IPI00258168
RBFOX2	RFOX2_HUMAN	23543	independent	IPI00258170
RBFOX2	RFOX2_HUMAN	23543	independent	IPI00554810
RBFOX2	RFOX2_HUMAN	23543	independent	IPI00843981
RBFOX2	RFOX2_HUMAN	23543	independent	IPI00844525
RBFOX2	RFOX2_HUMAN	23543	independent	IPI00844603
RBFOX2	RFOX2_HUMAN	23543	independent	IPI00878853
RBFOX2	RFOX2_HUMAN	23543	independent	IPI00879457
RBFOX2	RFOX2_HUMAN	23543	independent	IPI00885127
RBFOX2	RFOX2_HUMAN	23543	independent	IPI00937652
RBFOX2	RFOX2_HUMAN	23543	independent	IPI01025028
RBM10	RBM10_HUMAN	8241	independent	IPI00375731
RBM10	RBM10_HUMAN	8241	independent	IPI00549342
RBM10	RBM10_HUMAN	8241	independent	IPI00915253
RBM10	RBM10_HUMAN	8241	independent	IPI00916428
RBM10	RBM10_HUMAN	8241	independent	IPI01008793
RBM12B	RB12B_HUMAN	389677	independent	IPI00217626
RBM12B	RB12B_HUMAN	389677	independent	IPI00871780
RBM12B	RB12B_HUMAN	389677	independent	IPI00980861
RBM12B	RB12B_HUMAN	389677	independent	IPI00981453
RBM12B	RB12B_HUMAN	389677	independent	IPI00982018
RBM12B	RB12B_HUMAN	389677	independent	IPI00982580
RBM14	RBM14_HUMAN	10432	independent	IPI00013174
RBM14	RBM14_HUMAN	10432	independent	IPI00644837
RBM14	RBM14_HUMAN	10432	independent	IPI00719549
RBM14	RBM14_HUMAN	10432	independent	IPI00916896
RBM14	RBM14_HUMAN	10432	independent	IPI00917085
RBM14	RBM14_HUMAN	10432	independent	IPI01009009
RBM15	RBM15_HUMAN	64783	independent	IPI00102752
RBM15	RBM15_HUMAN	64783	independent	IPI00220716
RBM15	RBM15_HUMAN	64783	independent	IPI00220717
RBM15B	RB15B_HUMAN	29890	independent	IPI00175136
RBM19	RBM19_HUMAN	9904	dependent	IPI00000686
RBM22	RBM22_HUMAN	55696	independent	IPI00019046
RBM22	RBM22_HUMAN	55696	independent	IPI00909290
RBM22	RBM22_HUMAN	55696	independent	IPI00973998
RBM22	RBM22_HUMAN	55696	independent	IPI00979459
RBM28	RBM28_HUMAN	55131	dependent	IPI00304187
RBM28	RBM28_HUMAN	55131	dependent	IPI00909372
RBM28	RBM28_HUMAN	55131	dependent	IPI00944978
RBM28	RBM28_HUMAN	55131	dependent	IPI00945927
RBM3	RBM3_HUMAN	5935	independent	IPI00024320
RBM3	RBM3_HUMAN	5935	independent	IPI00790816
RBM34	RBM34_HUMAN	23029	dependent	IPI00181617
RBM34	RBM34_HUMAN	23029	dependent	IPI00514231
RBM34	RBM34_HUMAN	23029	dependent	IPI00930357
RBM39	RBM39_HUMAN	9584	independent	IPI00163505
RBM39	RBM39_HUMAN	9584	independent	IPI00215801
RBM39	RBM39_HUMAN	9584	independent	IPI00514831
RBM39	RBM39_HUMAN	9584	independent	IPI00644764
RBM39	RBM39_HUMAN	9584	independent	IPI00647282
RBM39	RBM39_HUMAN	9584	independent	IPI00852586
RBM39	RBM39_HUMAN	9584	independent	IPI00853448
RBM39	RBM39_HUMAN	9584	independent	IPI00878725
RBM39	RBM39_HUMAN	9584	independent	IPI00879910
RBM39	RBM39_HUMAN	9584	independent	IPI00915257
RBM39	RBM39_HUMAN	9584	independent	IPI01015916
RBM4	RBM4_HUMAN	5936	independent	IPI00003704
RBM4	RBM4_HUMAN	5936	independent	IPI00556034
RBM4	RBM4_HUMAN	5936	independent	IPI00908491
RBM4	RBM4_HUMAN	5936	independent	IPI00940890
RBM4	RBM4_HUMAN	5936	independent	IPI00965408
RBM4	RBM4_HUMAN	5936	independent	IPI00974578
RBM47	RBM47_HUMAN	54502	independent	IPI00005042
RBM47	RBM47_HUMAN	54502	independent	IPI00169342
RBM47	RBM47_HUMAN	54502	independent	IPI00964320
RBM47	RBM47_HUMAN	54502	independent	IPI00964984
RBM47	RBM47_HUMAN	54502	independent	IPI00965625
RBM47	RBM47_HUMAN	54502	independent	IPI00965724
RBM47	RBM47_HUMAN	54502	independent	IPI00965845
RBM47	RBM47_HUMAN	54502	independent	IPI00966779
RBM47	RBM47_HUMAN	54502	independent	IPI00967035
RBM47	RBM47_HUMAN	54502	independent	IPI00967966
RBM47	RBM47_HUMAN	54502	independent	IPI00968211
RBM4B	RBM4B_HUMAN	83759	independent	IPI00027838
RBM4B	RBM4B_HUMAN	83759	independent	IPI00977800
RBM4B	RBM4B_HUMAN	83759	independent	IPI00979194
RBM5	RBM5_HUMAN	10181	independent	IPI00005036
RBM5	RBM5_HUMAN	10181	independent	IPI00796867
RBM5	RBM5_HUMAN	10181	independent	IPI00926331
RBM5	RBM5_HUMAN	10181	independent	IPI00926674
RBM5	RBM5_HUMAN	10181	independent	IPI00926920
RBM5	RBM5_HUMAN	10181	independent	IPI00927051
RBM5	RBM5_HUMAN	10181	independent	IPI00930333
RBM5	RBM5_HUMAN	10181	independent	IPI00930619
RBM5	RBM5_HUMAN	10181	independent	IPI00952868
RBM5	RBM5_HUMAN	10181	independent	IPI01018697
RBM6	RBM6_HUMAN	10180	independent	IPI00297723
RBM6	RBM6_HUMAN	10180	independent	IPI00793735
RBM6	RBM6_HUMAN	10180	independent	IPI00925146
RBM6	RBM6_HUMAN	10180	independent	IPI00925552
RBM6	RBM6_HUMAN	10180	independent	IPI00925796
RBM6	RBM6_HUMAN	10180	independent	IPI00926778
RBM6	RBM6_HUMAN	10180	independent	IPI00926809
RBM6	RBM6_HUMAN	10180	independent	IPI00927009
RBM6	RBM6_HUMAN	10180	independent	IPI00927427
RBM6	RBM6_HUMAN	10180	independent	IPI00927608
RBM6	RBM6_HUMAN	10180	independent	IPI00927856
RBM7	RBM7_HUMAN	10179	independent	IPI00001134
RBM7	RBM7_HUMAN	10179	independent	IPI00556348
RBM7	RBM7_HUMAN	10179	independent	IPI01011626
RBM7	RBM7_HUMAN	10179	independent	IPI01012450
RBM7	RBM7_HUMAN	10179	independent	IPI01013862
RBMS1	RBMS1_HUMAN	5937	independent	IPI00033611
RBMS1	RBMS1_HUMAN	5937	independent	IPI00102991
RBMS1	RBMS1_HUMAN	5937	independent	IPI00929296
RBMS1	RBMS1_HUMAN	5937	independent	IPI00941661
RBMS1	RBMS1_HUMAN	5937	independent	IPI01011353
RBMS2	RBMS2_HUMAN	5939	independent	IPI00003706
RBMS2	RBMS2_HUMAN	5939	independent	IPI00922492
RBMS2	RBMS2_HUMAN	5939	independent	IPI00922692
RBMS2	RBMS2_HUMAN	5939	independent	IPI01022031
RBMS2	RBMS2_HUMAN	5939	independent	IPI01022509
RBMS2	RBMS2_HUMAN	5939	independent	IPI01022795
RBMS2	RBMS2_HUMAN	5939	independent	IPI01022960
RBMS3	RBMS3_HUMAN	27303	dependent	IPI00298424
RBMS3	RBMS3_HUMAN	27303	dependent	IPI00472404
RBMS3	RBMS3_HUMAN	27303	dependent	IPI00827856
RBMS3	RBMS3_HUMAN	27303	dependent	IPI00924610
RBMS3	RBMS3_HUMAN	27303	dependent	IPI00927842
RBMS3	RBMS3_HUMAN	27303	dependent	IPI00985081
RBMX	RBMX_HUMAN	27316	independent	IPI00304692
RBMX	RBMX_HUMAN	27316	independent	IPI00552938
RBMX	RBMX_HUMAN	27316	independent	IPI00939558
RBMXL1	RMXL1_HUMAN	494115	independent	IPI00061178
RBMXL2	RMXL2_HUMAN	27288	independent	IPI00004450
RBMXL3	RMXL3_HUMAN	139804	dependent	IPI00167369
RCL1	RCL1_HUMAN	10171	dependent	IPI00294229
RCL1	RCL1_HUMAN	10171	dependent	IPI00477560
RCL1	RCL1_HUMAN	10171	dependent	IPI00479685
RCL1	RCL1_HUMAN	10171	dependent	IPI00646397
RCL1	RCL1_HUMAN	10171	dependent	IPI00647354
REXO4	REXO4_HUMAN	57109	dependent	IPI00010653
REXO4	REXO4_HUMAN	57109	dependent	IPI00513877
RNPS1	RNPS1_HUMAN	10921	independent	IPI00033561
RNPS1	RNPS1_HUMAN	10921	independent	IPI00479871
RNPS1	RNPS1_HUMAN	10921	independent	IPI00783594
RPF1	RPF1_HUMAN	80135	dependent	IPI00292221
RPF2	RPF2_HUMAN	84154	dependent	IPI00396329
RPF2	RPF2_HUMAN	84154	dependent	IPI00478298
RPF2	RPF2_HUMAN	84154	dependent	IPI00644504
RPL10A	RL10A_HUMAN	4736	dependent	IPI00412579
RPL11	RL11_HUMAN	6135	dependent	IPI00376798
RPL11	RL11_HUMAN	6135	dependent	IPI00746438
RPL13	RL13_HUMAN	6137	dependent	IPI00465361
RPL13	RL13_HUMAN	6137	dependent	IPI00978971
RPL13A	RL13A_HUMAN	23521	dependent	IPI00304612
RPL14	RL14_HUMAN	9045	independent	IPI00555744
RPL14	RL14_HUMAN	9045	independent	IPI00925265
RPL14	RL14_HUMAN	9045	independent	IPI00925323
RPL15	RL15_HUMAN	6138	dependent	IPI00470528
RPL15	RL15_HUMAN	6138	dependent	IPI00910417
RPL15	RL15_HUMAN	6138	dependent	IPI00925058
RPL15	RL15_HUMAN	6138	dependent	IPI00926202
RPL15	RL15_HUMAN	6138	dependent	IPI00927715
RPL17	RL17_HUMAN	6139	dependent	IPI00413324
RPL18	RL18_HUMAN	6141	dependent	IPI00215719
RPL18	RL18_HUMAN	6141	dependent	IPI01021193
RPL18	RL18_HUMAN	6141	dependent	IPI01021374
RPL18	RL18_HUMAN	6141	dependent	IPI01021515
RPL18	RL18_HUMAN	6141	dependent	IPI01021673
RPL18A	RL18A_HUMAN	6142	independent	IPI00026202
RPL18A	RL18A_HUMAN	6142	independent	IPI00909746
RPL19	RL19_HUMAN	6143	independent	IPI00025329
RPL21	RL21_HUMAN	6144	dependent	IPI00247583
RPL22	RL22_HUMAN	6146	independent	IPI00219153
RPL22L1	RL22L_HUMAN	200916	independent	IPI00552388
RPL22L1	RL22L_HUMAN	200916	independent	IPI00856049
RPL22L1	RL22L_HUMAN	200916	independent	IPI00945264
RPL22L1	RL22L_HUMAN	200916	independent	IPI00946989
RPL23	RL23_HUMAN	9349	dependent	IPI00010153
RPL23	RL23_HUMAN	9349	dependent	IPI00794091
RPL23	RL23_HUMAN	9349	dependent	IPI00795751
RPL23A	RL23A_HUMAN	6147	independent	IPI00021266
RPL23A	RL23A_HUMAN	6147	independent	IPI00789159
RPL24	RL24_HUMAN	6152	independent	IPI00306332
RPL24	RL24_HUMAN	6152	independent	IPI00791426
RPL24	RL24_HUMAN	6152	independent	IPI00946221
RPL26	RL26_HUMAN	6154	dependent	IPI00027270
RPL27	RL27_HUMAN	6155	independent	IPI00219155
RPL27A	RL27A_HUMAN	6157	independent	IPI00456758
RPL27A	RL27A_HUMAN	6157	independent	IPI00976934
RPL27A	RL27A_HUMAN	6157	independent	IPI00977590
RPL27A	RL27A_HUMAN	6157	independent	IPI00977964
RPL27A	RL27A_HUMAN	6157	independent	IPI00980350
RPL28	RL28_HUMAN	6158	independent	IPI00182533
RPL28	RL28_HUMAN	6158	independent	IPI00910727
RPL28	RL28_HUMAN	6158	independent	IPI00914529
RPL28	RL28_HUMAN	6158	independent	IPI00914543
RPL29	RL29_HUMAN	6159	independent	IPI00419919
RPL29	RL29_HUMAN	6159	independent	IPI00798109
RPL29	RL29_HUMAN	6159	independent	IPI00945894
RPL3	RL3_HUMAN	6122	dependent	IPI00550021
RPL3	RL3_HUMAN	6122	dependent	IPI00651660
RPL3	RL3_HUMAN	6122	dependent	IPI00877787
RPL3	RL3_HUMAN	6122	dependent	IPI00878827
RPL30	RL30_HUMAN	6156	dependent	IPI00219156
RPL30	RL30_HUMAN	6156	dependent	IPI00794745
RPL30	RL30_HUMAN	6156	dependent	IPI00983316
RPL31	RL31_HUMAN	6160	independent	IPI00026302
RPL31	RL31_HUMAN	6160	independent	IPI00848331
RPL31	RL31_HUMAN	6160	independent	IPI00856058
RPL31	RL31_HUMAN	6160	independent	IPI00915795
RPL31	RL31_HUMAN	6160	independent	IPI00916315
RPL31	RL31_HUMAN	6160	independent	IPI00917298
RPL31	RL31_HUMAN	6160	independent	IPI00917675
RPL34	RL34_HUMAN	6164	independent	IPI00219160
RPL35	RL35_HUMAN	11224	dependent	IPI00412607
RPL35	RL35_HUMAN	11224	dependent	IPI01014264
RPL35A	RL35A_HUMAN	6165	dependent	IPI00029731
RPL35A	RL35A_HUMAN	6165	dependent	IPI00793102
RPL35A	RL35A_HUMAN	6165	dependent	IPI00926288
RPL35A	RL35A_HUMAN	6165	dependent	IPI00926495
RPL4	RL4_HUMAN	6124	independent	IPI00003918
RPL5	RL5_HUMAN	6125	independent	IPI00000494
RPL5	RL5_HUMAN	6125	independent	IPI00640037
RPL6	RL6_HUMAN	6128	dependent	IPI00790342
RPL6	RL6_HUMAN	6128	dependent	IPI00867533
RPL6	RL6_HUMAN	6128	dependent	IPI01021128
RPL6	RL6_HUMAN	6128	dependent	IPI01021267
RPL6	RL6_HUMAN	6128	dependent	IPI01021434
RPL6	RL6_HUMAN	6128	dependent	IPI01021767
RPL7	RL7_HUMAN	6129	independent	IPI00030179
RPL7	RL7_HUMAN	6129	independent	IPI00790291
RPL7	RL7_HUMAN	6129	independent	IPI00793342
RPL7	RL7_HUMAN	6129	independent	IPI00794746
RPL7A	RL7A_HUMAN	6130	dependent	IPI00299573
RPL7A	RL7A_HUMAN	6130	dependent	IPI00478896
RPL7A	RL7A_HUMAN	6130	dependent	IPI00642454
RPL7L1	RL7L_HUMAN	285855	dependent	IPI00456940
RPL7L1	RL7L_HUMAN	285855	dependent	IPI01013442
RPL8	RL8_HUMAN	6132	independent	IPI00012772
RPL8	RL8_HUMAN	6132	independent	IPI00792050
RPL8	RL8_HUMAN	6132	independent	IPI00976899
RPL8	RL8_HUMAN	6132	independent	IPI01015034
RPS10	RS10_HUMAN	6204	independent	IPI00008438
RPS10	RS10_HUMAN	6204	independent	IPI00478810
RPS11	RS11_HUMAN	6205	independent	IPI00025091
RPS13	RS13_HUMAN	6207	dependent	IPI00221089
RPS13	RS13_HUMAN	6207	dependent	IPI00980940
RPS14	RS14_HUMAN	6208	independent	IPI00026271
RPS14	RS14_HUMAN	6208	independent	IPI00975486
RPS16	RS16_HUMAN	6217	dependent	IPI00221092
RPS16	RS16_HUMAN	6217	dependent	IPI00450975
RPS18	RS18_HUMAN	6222	independent	IPI00013296
RPS19	RS19_HUMAN	6223	independent	IPI00215780
RPS19BP1	AROS_HUMAN	91582	dependent	IPI00219006
RPS19BP1	AROS_HUMAN	91582	dependent	IPI00880106
RPS2	RS2_HUMAN	6187	independent	IPI00013485
RPS2	RS2_HUMAN	6187	independent	IPI00977151
RPS2	RS2_HUMAN	6187	independent	IPI00977651
RPS2	RS2_HUMAN	6187	independent	IPI00979595
RPS2	RS2_HUMAN	6187	independent	IPI00985370
RPS20	RS20_HUMAN	6224	independent	IPI00012493
RPS20	RS20_HUMAN	6224	independent	IPI00791265
RPS20	RS20_HUMAN	6224	independent	IPI00794659
RPS20	RS20_HUMAN	6224	independent	IPI00796373
RPS23	RS23_HUMAN	6228	dependent	IPI00218606
RPS23	RS23_HUMAN	6228	dependent	IPI00965062
RPS23	RS23_HUMAN	6228	dependent	IPI00966370
RPS23	RS23_HUMAN	6228	dependent	IPI00966986
RPS23	RS23_HUMAN	6228	dependent	IPI00968307
RPS26	RS26_HUMAN	6231	independent	IPI00655650
RPS3	RS3_HUMAN	6188	independent	IPI00011253
RPS3	RS3_HUMAN	6188	independent	IPI00855830
RPS3	RS3_HUMAN	6188	independent	IPI00939811
RPS3	RS3_HUMAN	6188	independent	IPI00977579
RPS3	RS3_HUMAN	6188	independent	IPI00978298
RPS3	RS3_HUMAN	6188	independent	IPI00979522
RPS3	RS3_HUMAN	6188	independent	IPI00979604
RPS3	RS3_HUMAN	6188	independent	IPI00980283
RPS3	RS3_HUMAN	6188	independent	IPI00981193
RPS3	RS3_HUMAN	6188	independent	IPI00984887
RPS3A	RS3A_HUMAN	6189	independent	IPI00419880
RPS3A	RS3A_HUMAN	6189	independent	IPI00963912
RPS3A	RS3A_HUMAN	6189	independent	IPI00964983
RPS3A	RS3A_HUMAN	6189	independent	IPI00965481
RPS3A	RS3A_HUMAN	6189	independent	IPI00966516
RPS3A	RS3A_HUMAN	6189	independent	IPI00966860
RPS3A	RS3A_HUMAN	6189	independent	IPI00967073
RPS3A	RS3A_HUMAN	6189	independent	IPI00967388
RPS3A	RS3A_HUMAN	6189	independent	IPI00967897
RPS3A	RS3A_HUMAN	6189	independent	IPI00968146
RPS4X	RS4X_HUMAN	6191	dependent	IPI00217030
RPS4X	RS4X_HUMAN	6191	dependent	IPI01024803
RPS5	RS5_HUMAN	6193	independent	IPI00008433
RPS6	RS6_HUMAN	6194	independent	IPI00021840
RPS6	RS6_HUMAN	6194	independent	IPI00640929
RPS6	RS6_HUMAN	6194	independent	IPI00643522
RPS7	RS7_HUMAN	6201	independent	IPI00013415
RPS7	RS7_HUMAN	6201	independent	IPI00893703
RPS8	RS8_HUMAN	6202	dependent	IPI00216587
RPS8	RS8_HUMAN	6202	dependent	IPI00645201
RPS9	RS9_HUMAN	6203	independent	IPI00221088
RPS9	RS9_HUMAN	6203	independent	IPI00853062
RPS9	RS9_HUMAN	6203	independent	IPI00879238
RPS9	RS9_HUMAN	6203	independent	IPI00879512
RPS9	RS9_HUMAN	6203	independent	IPI00925580
RPSA	RSSA_HUMAN	3921	independent	IPI00553164
RPSA	RSSA_HUMAN	3921	independent	IPI00927101
RPSA	RSSA_HUMAN	3921	independent	IPI00927337
RRBP1	RRBP1_HUMAN	6238	independent	IPI00215743
RRBP1	RRBP1_HUMAN	6238	independent	IPI00220967
RRBP1	RRBP1_HUMAN	6238	independent	IPI00744135
RRBP1	RRBP1_HUMAN	6238	independent	IPI01011993
RRBP1	RRBP1_HUMAN	6238	independent	IPI01015934
RRP1	RRP1_HUMAN	8568	dependent	IPI00550766
RRP1	RRP1_HUMAN	8568	dependent	IPI00909754
RRP12	RRP12_HUMAN	23223	dependent	IPI00101186
RRP12	RRP12_HUMAN	23223	dependent	IPI00294794
RRP12	RRP12_HUMAN	23223	dependent	IPI00940901
RRP12	RRP12_HUMAN	23223	dependent	IPI01011408
RRP1B	RRP1B_HUMAN	23076	dependent	IPI00032374
RRP1B	RRP1B_HUMAN	23076	dependent	IPI00290952
RRP36	RRP36_HUMAN	88745	dependent	IPI00106638
RRP36	RRP36_HUMAN	88745	dependent	IPI00787473
RRP7A	RRP7A_HUMAN	27341	dependent	IPI00877976
RRP7A	RRP7A_HUMAN	27341	dependent	IPI00879006
RRP8	RRP8_HUMAN	23378	dependent	IPI00304932
RRP8	RRP8_HUMAN	23378	dependent	IPI00981816
RRP8	RRP8_HUMAN	23378	dependent	IPI00983142
RRP8	RRP8_HUMAN	23378	dependent	IPI00984224
RRP9	U3IP2_HUMAN	9136	dependent	IPI00217862
RRS1	RRS1_HUMAN	23212	dependent	IPI00014253
RSL1D1	RL1D1_HUMAN	26156	dependent	IPI00008708
RSL1D1	RL1D1_HUMAN	26156	dependent	IPI01016043
SAFB	SAFB1_HUMAN	6294	independent	IPI00300631
SAFB	SAFB1_HUMAN	6294	independent	IPI00646058
SAFB	SAFB1_HUMAN	6294	independent	IPI00941773
SAFB	SAFB1_HUMAN	6294	independent	IPI00983392
SAFB	SAFB1_HUMAN	6294	independent	IPI01018318
SAFB2	SAFB2_HUMAN	9667	independent	IPI00005648
SAFB2	SAFB2_HUMAN	9667	independent	IPI00910872
SDAD1	SDA1_HUMAN	55153	dependent	IPI00018240
SDAD1	SDA1_HUMAN	55153	dependent	IPI00797421
SDAD1	SDA1_HUMAN	55153	dependent	IPI00910311
SDAD1	SDA1_HUMAN	55153	dependent	IPI00966637
SDAD1	SDA1_HUMAN	55153	dependent	IPI00966953
SDAD1	SDA1_HUMAN	55153	dependent	IPI00967658
SERBP1	PAIRB_HUMAN	26135	independent	IPI00410693
SERBP1	PAIRB_HUMAN	26135	independent	IPI00412714
SERBP1	PAIRB_HUMAN	26135	independent	IPI00470497
SERBP1	PAIRB_HUMAN	26135	independent	IPI00470498
SF3A3	SF3A3_HUMAN	10946	independent	IPI00029764
SF3A3	SF3A3_HUMAN	10946	independent	IPI00908449
SF3B1	SF3B1_HUMAN	23451	independent	IPI00026089
SF3B1	SF3B1_HUMAN	23451	independent	IPI00479561
SF3B1	SF3B1_HUMAN	23451	independent	IPI00917674
SF3B1	SF3B1_HUMAN	23451	independent	IPI01011024
SF3B2	SF3B2_HUMAN	10992	independent	IPI00221106
SF3B2	SF3B2_HUMAN	10992	independent	IPI00975674
SF3B2	SF3B2_HUMAN	10992	independent	IPI00976190
SF3B2	SF3B2_HUMAN	10992	independent	IPI00976909
SF3B2	SF3B2_HUMAN	10992	independent	IPI00978402
SF3B4	SF3B4_HUMAN	10262	independent	IPI00017339
SF3B4	SF3B4_HUMAN	10262	independent	IPI00644485
SFPQ	SFPQ_HUMAN	6421	independent	IPI00010740
SFPQ	SFPQ_HUMAN	6421	independent	IPI00216613
SKIV2L2	SK2L2_HUMAN	23517	dependent	IPI00647217
SKIV2L2	SK2L2_HUMAN	23517	dependent	IPI00815681
SKIV2L2	SK2L2_HUMAN	23517	dependent	IPI00965875
SKIV2L2	SK2L2_HUMAN	23517	dependent	IPI01011073
SLIRP	SLIRP_HUMAN	81892	independent	IPI00009922
SLTM	SLTM_HUMAN	79811	independent	IPI00019996
SLTM	SLTM_HUMAN	79811	independent	IPI00792743
SND1	SND1_HUMAN	27044	independent	IPI00140420
SNRNP70	RU17_HUMAN	6625	independent	IPI00219483
SNRNP70	RU17_HUMAN	6625	independent	IPI00219484
SNRNP70	RU17_HUMAN	6625	independent	IPI00219485
SNRNP70	RU17_HUMAN	6625	independent	IPI00290204
SNRPB	RSMB_HUMAN	6628	independent	IPI00027285
SNRPB	RSMB_HUMAN	6628	independent	IPI00329512
SNRPB	RSMB_HUMAN	6628	independent	IPI00395674
SNRPB	RSMB_HUMAN	6628	independent	IPI00877103
SNRPD1	SMD1_HUMAN	6632	independent	IPI00302850
SNRPD2	SMD2_HUMAN	6633	independent	IPI00017963
SNRPE	RUXE_HUMAN	6635	independent	IPI00029266
SNRPE	RUXE_HUMAN	6635	independent	IPI00647942
SNRPG	RUXG_HUMAN	6637	dependent	IPI00016572
SNRPG	RUXG_HUMAN	6637	dependent	IPI00924895
SNRPG	RUXG_HUMAN	6637	dependent	IPI00925525
SNRPG	RUXG_HUMAN	6637	dependent	IPI01015663
SNU13	NH2L1_HUMAN	4809	dependent	IPI00026167
SNU13	NH2L1_HUMAN	4809	dependent	IPI00893746
SPATS2L	SPS2L_HUMAN	26010	dependent	IPI00023532
SPATS2L	SPS2L_HUMAN	26010	dependent	IPI00103027
SPATS2L	SPS2L_HUMAN	26010	dependent	IPI00915844
SPATS2L	SPS2L_HUMAN	26010	dependent	IPI00915976
SPATS2L	SPS2L_HUMAN	26010	dependent	IPI00916544
SPATS2L	SPS2L_HUMAN	26010	dependent	IPI00916831
SPATS2L	SPS2L_HUMAN	26010	dependent	IPI00916902
SPATS2L	SPS2L_HUMAN	26010	dependent	IPI00917040
SPATS2L	SPS2L_HUMAN	26010	dependent	IPI00917360
SPATS2L	SPS2L_HUMAN	26010	dependent	IPI00917531
SPATS2L	SPS2L_HUMAN	26010	dependent	IPI00917948
SPATS2L	SPS2L_HUMAN	26010	dependent	IPI00925916
SPATS2L	SPS2L_HUMAN	26010	dependent	IPI00926880
SPATS2L	SPS2L_HUMAN	26010	dependent	IPI00956176
SPATS2L	SPS2L_HUMAN	26010	dependent	IPI01010942
SPATS2L	SPS2L_HUMAN	26010	dependent	IPI01013077
SPEN	MINT_HUMAN	23013	independent	IPI00045914
SPEN	MINT_HUMAN	23013	independent	IPI00477898
SPOUT1	CI114_HUMAN	51490	dependent	IPI00844014
SRBD1	SRBD1_HUMAN	55133	independent	IPI00171087
SRBD1	SRBD1_HUMAN	55133	independent	IPI00843788
SRFBP1	SRFB1_HUMAN	153443	dependent	IPI00304493
SRSF1	SRSF1_HUMAN	6426	independent	IPI00215884
SRSF1	SRSF1_HUMAN	6426	independent	IPI00218591
SRSF1	SRSF1_HUMAN	6426	independent	IPI00218592
SRSF10	SRS10_HUMAN	10772	independent	IPI00009071
SRSF10	SRS10_HUMAN	10772	independent	IPI00074587
SRSF10	SRS10_HUMAN	10772	independent	IPI00386662
SRSF10	SRS10_HUMAN	10772	independent	IPI00412643
SRSF10	SRS10_HUMAN	10772	independent	IPI00477946
SRSF10	SRS10_HUMAN	10772	independent	IPI00646643
SRSF10	SRS10_HUMAN	10772	independent	IPI00979506
SRSF2	SRSF2_HUMAN	6427	independent	IPI00005978
SRSF2	SRSF2_HUMAN	6427	independent	IPI01011463
SRSF3	SRSF3_HUMAN	6428	independent	IPI00010204
SRSF3	SRSF3_HUMAN	6428	independent	IPI00843996
SRSF4	SRSF4_HUMAN	6429	independent	IPI00000015
SRSF4	SRSF4_HUMAN	6429	independent	IPI00908618
SRSF5	SRSF5_HUMAN	6430	independent	IPI00012341
SRSF5	SRSF5_HUMAN	6430	independent	IPI00221286
SRSF5	SRSF5_HUMAN	6430	independent	IPI00413654
SRSF5	SRSF5_HUMAN	6430	independent	IPI01009006
SRSF5	SRSF5_HUMAN	6430	independent	IPI01025047
SRSF6	SRSF6_HUMAN	6431	independent	IPI00012345
SRSF6	SRSF6_HUMAN	6431	independent	IPI00018203
SRSF6	SRSF6_HUMAN	6431	independent	IPI00215879
SRSF7	SRSF7_HUMAN	6432	independent	IPI00003377
SRSF7	SRSF7_HUMAN	6432	independent	IPI00215907
SRSF7	SRSF7_HUMAN	6432	independent	IPI00744364
SRSF7	SRSF7_HUMAN	6432	independent	IPI00916448
SRSF7	SRSF7_HUMAN	6432	independent	IPI00917346
SRSF9	SRSF9_HUMAN	8683	independent	IPI00012340
SSB	LA_HUMAN	6741	dependent	IPI00009032
SSB	LA_HUMAN	6741	dependent	IPI00916922
SSB	LA_HUMAN	6741	dependent	IPI00917205
SSB	LA_HUMAN	6741	dependent	IPI00917386
SSBP1	SSBP_HUMAN	6742	independent	IPI00029744
SSBP1	SSBP_HUMAN	6742	independent	IPI00922415
SSBP1	SSBP_HUMAN	6742	independent	IPI00946431
SSBP1	SSBP_HUMAN	6742	independent	IPI00947310
SSBP1	SSBP_HUMAN	6742	independent	IPI01014556
SSR3	SSRG_HUMAN	6747	dependent	IPI00009235
SSR3	SSRG_HUMAN	6747	dependent	IPI00791847
SSR3	SSRG_HUMAN	6747	dependent	IPI00945960
SSR3	SSRG_HUMAN	6747	dependent	IPI00946150
STAU1	STAU1_HUMAN	6780	independent	IPI00000001
STAU1	STAU1_HUMAN	6780	independent	IPI00218609
STAU1	STAU1_HUMAN	6780	independent	IPI00553038
STAU1	STAU1_HUMAN	6780	independent	IPI00641873
STAU1	STAU1_HUMAN	6780	independent	IPI00643664
STAU1	STAU1_HUMAN	6780	independent	IPI00645009
STAU2	STAU2_HUMAN	27067	independent	IPI00164481
STAU2	STAU2_HUMAN	27067	independent	IPI00300789
STAU2	STAU2_HUMAN	27067	independent	IPI00644299
STAU2	STAU2_HUMAN	27067	independent	IPI00644696
STAU2	STAU2_HUMAN	27067	independent	IPI00943844
STAU2	STAU2_HUMAN	27067	independent	IPI00973515
STAU2	STAU2_HUMAN	27067	independent	IPI00974583
STAU2	STAU2_HUMAN	27067	independent	IPI00976647
STAU2	STAU2_HUMAN	27067	independent	IPI00978201
STAU2	STAU2_HUMAN	27067	independent	IPI00978419
STAU2	STAU2_HUMAN	27067	independent	IPI00982554
STAU2	STAU2_HUMAN	27067	independent	IPI01009003
STAU2	STAU2_HUMAN	27067	independent	IPI01009624
STAU2	STAU2_HUMAN	27067	independent	IPI01013767
STAU2	STAU2_HUMAN	27067	independent	IPI01013930
SUB1	TCP4_HUMAN	10923	dependent	IPI00221222
SUB1	TCP4_HUMAN	10923	dependent	IPI00963960
SUB1	TCP4_HUMAN	10923	dependent	IPI00964232
SUMO1	SUMO1_HUMAN	7341	dependent	IPI00303105
SUMO1	SUMO1_HUMAN	7341	dependent	IPI00477045
SUMO1	SUMO1_HUMAN	7341	dependent	IPI00916532
SUMO1	SUMO1_HUMAN	7341	dependent	IPI00917013
SUMO1	SUMO1_HUMAN	7341	dependent	IPI00917683
SUMO1	SUMO1_HUMAN	7341	dependent	IPI00917832
SUMO1	SUMO1_HUMAN	7341	dependent	IPI00917981
SUMO2	SUMO2_HUMAN	6613	independent	IPI00299149
SUPT6H	SPT6H_HUMAN	6830	dependent	IPI00430770
SUPT6H	SPT6H_HUMAN	6830	dependent	IPI00456683
SUPT6H	SPT6H_HUMAN	6830	dependent	IPI00784161
SURF6	SURF6_HUMAN	6838	dependent	IPI00026606
SYNCRIP	HNRPQ_HUMAN	10492	independent	IPI00018140
SYNCRIP	HNRPQ_HUMAN	10492	independent	IPI00402182
SYNCRIP	HNRPQ_HUMAN	10492	independent	IPI00402183
SYNCRIP	HNRPQ_HUMAN	10492	independent	IPI00402184
SYNCRIP	HNRPQ_HUMAN	10492	independent	IPI00402185
SYNE1	SYNE1_HUMAN	23345	independent	IPI00170463
SYNE1	SYNE1_HUMAN	23345	independent	IPI00247295
SYNE1	SYNE1_HUMAN	23345	independent	IPI00247296
SYNE1	SYNE1_HUMAN	23345	independent	IPI00247300
SYNE1	SYNE1_HUMAN	23345	independent	IPI00386444
SYNE1	SYNE1_HUMAN	23345	independent	IPI00396977
SYNE1	SYNE1_HUMAN	23345	independent	IPI00642043
SYNE1	SYNE1_HUMAN	23345	independent	IPI00647370
SYNE1	SYNE1_HUMAN	23345	independent	IPI00748856
SYNE1	SYNE1_HUMAN	23345	independent	IPI00940636
SYNE1	SYNE1_HUMAN	23345	independent	IPI00943590
SYNE1	SYNE1_HUMAN	23345	independent	IPI01009568
SYNE1	SYNE1_HUMAN	23345	independent	IPI01012718
SYNE1	SYNE1_HUMAN	23345	independent	IPI01015487
SYNE1	SYNE1_HUMAN	23345	independent	IPI01019087
SYNE2	SYNE2_HUMAN	23224	independent	IPI00239405
SYNE2	SYNE2_HUMAN	23224	independent	IPI00239406
SYNE2	SYNE2_HUMAN	23224	independent	IPI00239409
SYNE2	SYNE2_HUMAN	23224	independent	IPI00239410
SYNE2	SYNE2_HUMAN	23224	independent	IPI00239413
SYNE2	SYNE2_HUMAN	23224	independent	IPI00239414
SYNE2	SYNE2_HUMAN	23224	independent	IPI00412276
SYNE2	SYNE2_HUMAN	23224	independent	IPI00815967
SYNE2	SYNE2_HUMAN	23224	independent	IPI01009561
SYNE2	SYNE2_HUMAN	23224	independent	IPI01025763
SYNE2	SYNE2_HUMAN	23224	independent	IPI01025888
SYT4	SYT4_HUMAN	6860	dependent	IPI00022735
TAF15	RBP56_HUMAN	8148	independent	IPI00020194
TAF15	RBP56_HUMAN	8148	independent	IPI00294426
TARDBP	TADBP_HUMAN	23435	independent	IPI00009928
TARDBP	TADBP_HUMAN	23435	independent	IPI00025815
TARDBP	TADBP_HUMAN	23435	independent	IPI00639819
TARDBP	TADBP_HUMAN	23435	independent	IPI00844544
TARDBP	TADBP_HUMAN	23435	independent	IPI00910355
TARDBP	TADBP_HUMAN	23435	independent	IPI00971018
TBRG4	TBRG4_HUMAN	9238	independent	IPI00329625
TBRG4	TBRG4_HUMAN	9238	independent	IPI00477123
TBRG4	TBRG4_HUMAN	9238	independent	IPI00945791
TBRG4	TBRG4_HUMAN	9238	independent	IPI00946301
TBRG4	TBRG4_HUMAN	9238	independent	IPI00946413
TBRG4	TBRG4_HUMAN	9238	independent	IPI00946836
TBRG4	TBRG4_HUMAN	9238	independent	IPI00947237
TCOF1	TCOF_HUMAN	6949	dependent	IPI00165041
TCOF1	TCOF_HUMAN	6949	dependent	IPI00298696
TCOF1	TCOF_HUMAN	6949	dependent	IPI00555853
TCOF1	TCOF_HUMAN	6949	dependent	IPI00815713
TCOF1	TCOF_HUMAN	6949	dependent	IPI00815731
TCOF1	TCOF_HUMAN	6949	dependent	IPI00815944
TCOF1	TCOF_HUMAN	6949	dependent	IPI00914061
TCOF1	TCOF_HUMAN	6949	dependent	IPI00969501
TEX10	TEX10_HUMAN	54881	dependent	IPI00549664
TEX10	TEX10_HUMAN	54881	dependent	IPI00642510
TEX10	TEX10_HUMAN	54881	dependent	IPI01013345
THRAP3	TR150_HUMAN	9967	independent	IPI00104050
THRAP3	TR150_HUMAN	9967	independent	IPI00977867
TIA1	TIA1_HUMAN	7072	independent	IPI00291398
TIA1	TIA1_HUMAN	7072	independent	IPI00333996
TIA1	TIA1_HUMAN	7072	independent	IPI00743479
TIA1	TIA1_HUMAN	7072	independent	IPI00926358
TIA1	TIA1_HUMAN	7072	independent	IPI00926546
TIA1	TIA1_HUMAN	7072	independent	IPI00927286
TIA1	TIA1_HUMAN	7072	independent	IPI00974016
TIA1	TIA1_HUMAN	7072	independent	IPI00974428
TIAL1	TIAR_HUMAN	7073	independent	IPI00005615
TIAL1	TIAR_HUMAN	7073	independent	IPI00644708
TIAL1	TIAR_HUMAN	7073	independent	IPI00646522
TIAL1	TIAR_HUMAN	7073	independent	IPI00647436
TIAL1	TIAR_HUMAN	7073	independent	IPI01012546
TIAL1	TIAR_HUMAN	7073	independent	IPI01013673
TMEM33	TMM33_HUMAN	55161	dependent	IPI00299084
TMEM33	TMM33_HUMAN	55161	dependent	IPI00967533
TMEM33	TMM33_HUMAN	55161	dependent	IPI00967865
TNFSF10	TNF10_HUMAN	8743	dependent	IPI00000049
TNFSF10	TNF10_HUMAN	8743	dependent	IPI00790933
TRA2A	TRA2A_HUMAN	29896	independent	IPI00013891
TRA2A	TRA2A_HUMAN	29896	independent	IPI00220447
TRA2A	TRA2A_HUMAN	29896	independent	IPI00917062
TRA2A	TRA2A_HUMAN	29896	independent	IPI01014274
TRA2B	TRA2B_HUMAN	6434	independent	IPI00220938
TRA2B	TRA2B_HUMAN	6434	independent	IPI00301503
TRA2B	TRA2B_HUMAN	6434	independent	IPI00472633
TRIM25	TRI25_HUMAN	7706	independent	IPI00029629
TRMT1L	TRM1L_HUMAN	81627	dependent	IPI00334914
TRMT1L	TRM1L_HUMAN	81627	dependent	IPI00844404
TRMT6	TRM6_HUMAN	51605	dependent	IPI00099311
TRMT6	TRM6_HUMAN	51605	dependent	IPI00155747
TRMT6	TRM6_HUMAN	51605	dependent	IPI00885131
TRMT6	TRM6_HUMAN	51605	dependent	IPI01013230
U2AF1	U2AF1_HUMAN	7307	independent	IPI00005613
U2AF2	U2AF2_HUMAN	11338	independent	IPI00031556
U2AF2	U2AF2_HUMAN	11338	independent	IPI00830039
UBA52	RL40_HUMAN	7311	independent	IPI00385127
UBA52	RL40_HUMAN	7311	independent	IPI00456429
UBAP2	UBAP2_HUMAN	55833	independent	IPI00171127
UBAP2	UBAP2_HUMAN	55833	independent	IPI00238081
UBAP2	UBAP2_HUMAN	55833	independent	IPI00432360
UBAP2	UBAP2_HUMAN	55833	independent	IPI00552603
UBAP2	UBAP2_HUMAN	55833	independent	IPI00552813
UBAP2L	UBP2L_HUMAN	9898	independent	IPI00005416
UBAP2L	UBP2L_HUMAN	9898	independent	IPI00029019
UBAP2L	UBP2L_HUMAN	9898	independent	IPI00181306
UBAP2L	UBP2L_HUMAN	9898	independent	IPI00514856
UBAP2L	UBP2L_HUMAN	9898	independent	IPI00643473
UBAP2L	UBP2L_HUMAN	9898	independent	IPI00644587
UBAP2L	UBP2L_HUMAN	9898	independent	IPI00645155
UBAP2L	UBP2L_HUMAN	9898	independent	IPI00645444
UBAP2L	UBP2L_HUMAN	9898	independent	IPI00646016
UBAP2L	UBP2L_HUMAN	9898	independent	IPI00946257
UPF1	RENT1_HUMAN	5976	independent	IPI00034049
UPF1	RENT1_HUMAN	5976	independent	IPI00399170
URB1	NPA1P_HUMAN	9875	dependent	IPI00297241
URB2	URB2_HUMAN	9816	dependent	IPI00028980
URB2	URB2_HUMAN	9816	dependent	IPI00647910
USP36	UBP36_HUMAN	57602	dependent	IPI00001786
USP36	UBP36_HUMAN	57602	dependent	IPI00383547
USP36	UBP36_HUMAN	57602	dependent	IPI00843790
USP36	UBP36_HUMAN	57602	dependent	IPI00902886
UTP11	UTP11_HUMAN	51118	dependent	IPI00180454
UTP11	UTP11_HUMAN	51118	dependent	IPI01014233
UTP14A	UT14A_HUMAN	10813	dependent	IPI00107113
UTP14A	UT14A_HUMAN	10813	dependent	IPI00607550
UTP14A	UT14A_HUMAN	10813	dependent	IPI00872922
UTP14A	UT14A_HUMAN	10813	dependent	IPI00940505
UTP15	UTP15_HUMAN	84135	dependent	IPI00152708
UTP15	UTP15_HUMAN	84135	dependent	IPI00966492
UTP15	UTP15_HUMAN	84135	dependent	IPI00967090
UTP18	UTP18_HUMAN	51096	dependent	IPI00965993
UTP18	UTP18_HUMAN	51096	dependent	IPI01015840
UTP20	UTP20_HUMAN	27340	dependent	IPI00004970
UTP3	SAS10_HUMAN	57050	dependent	IPI00006900
UTP4	CIR1A_HUMAN	84916	dependent	IPI00239815
UTP4	CIR1A_HUMAN	84916	dependent	IPI00399195
UTP4	CIR1A_HUMAN	84916	dependent	IPI00399197
WDR3	WDR3_HUMAN	10885	dependent	IPI00009471
WDR3	WDR3_HUMAN	10885	dependent	IPI00447116
WDR33	WDR33_HUMAN	55339	independent	IPI00106567
WDR33	WDR33_HUMAN	55339	independent	IPI00385811
WDR33	WDR33_HUMAN	55339	independent	IPI00432450
WDR33	WDR33_HUMAN	55339	independent	IPI00917267
WDR33	WDR33_HUMAN	55339	independent	IPI00917459
WDR36	WDR36_HUMAN	134430	dependent	IPI00169325
WDR36	WDR36_HUMAN	134430	dependent	IPI00965593
WDR36	WDR36_HUMAN	134430	dependent	IPI00966980
WDR43	WDR43_HUMAN	23160	dependent	IPI00892938
WDR43	WDR43_HUMAN	23160	dependent	IPI00893052
WDR43	WDR43_HUMAN	23160	dependent	IPI00893207
WDR43	WDR43_HUMAN	23160	dependent	IPI00937477
WDR46	WDR46_HUMAN	9277	dependent	IPI00023126
WDR46	WDR46_HUMAN	9277	dependent	IPI00973071
WDR75	WDR75_HUMAN	84128	dependent	IPI00217240
WDR75	WDR75_HUMAN	84128	dependent	IPI00916375
WDR75	WDR75_HUMAN	84128	dependent	IPI00917653
XRCC5	XRCC5_HUMAN	7520	independent	IPI00220834
XRCC5	XRCC5_HUMAN	7520	independent	IPI00871391
XRCC6	XRCC6_HUMAN	2547	dependent	IPI00644712
XRCC6	XRCC6_HUMAN	2547	dependent	IPI00889791
XRCC6	XRCC6_HUMAN	2547	dependent	IPI00893062
XRN2	XRN2_HUMAN	22803	independent	IPI00100151
XRN2	XRN2_HUMAN	22803	independent	IPI00788157
XRN2	XRN2_HUMAN	22803	independent	IPI01012839
YBX1	YBOX1_HUMAN	4904	independent	IPI00031812
YBX1	YBOX1_HUMAN	4904	independent	IPI00643807
YBX3	DBPA_HUMAN	8531	independent	IPI00031801
YBX3	DBPA_HUMAN	8531	independent	IPI00219147
YBX3	DBPA_HUMAN	8531	independent	IPI00219148
YTHDF1	YTHD1_HUMAN	54915	independent	IPI00414899
YTHDF1	YTHD1_HUMAN	54915	independent	IPI00552188
YTHDF1	YTHD1_HUMAN	54915	independent	IPI00843759
YTHDF1	YTHD1_HUMAN	54915	independent	IPI01012814
YTHDF2	YTHD2_HUMAN	51441	independent	IPI00306043
YTHDF2	YTHD2_HUMAN	51441	independent	IPI00397024
YTHDF3	YTHD3_HUMAN	253943	independent	IPI00396131
ZC3H11A	ZC11A_HUMAN	9877	independent	IPI00328306
ZC3H11A	ZC11A_HUMAN	9877	independent	IPI00455725
ZC3H11A	ZC11A_HUMAN	9877	independent	IPI00953423
ZC3H11A	ZC11A_HUMAN	9877	independent	IPI01014067
ZC3H14	ZC3HE_HUMAN	79882	independent	IPI00168449
ZC3H14	ZC3HE_HUMAN	79882	independent	IPI00168501
ZC3H14	ZC3HE_HUMAN	79882	independent	IPI00291357
ZC3H14	ZC3HE_HUMAN	79882	independent	IPI00397376
ZC3H14	ZC3HE_HUMAN	79882	independent	IPI00451437
ZC3H14	ZC3HE_HUMAN	79882	independent	IPI00890689
ZC3H14	ZC3HE_HUMAN	79882	independent	IPI00890821
ZC3H14	ZC3HE_HUMAN	79882	independent	IPI00930470
ZC3H7A	Z3H7A_HUMAN	29066	independent	IPI00217355
ZC3H7A	Z3H7A_HUMAN	29066	independent	IPI00607547
ZC3H7B	Z3H7B_HUMAN	23264	independent	IPI00099131
ZC3H7B	Z3H7B_HUMAN	23264	independent	IPI00216361
ZC3H8	ZC3H8_HUMAN	84524	dependent	IPI00307760
ZC3HAV1	ZCCHV_HUMAN	56829	independent	IPI00332936
ZC3HAV1	ZCCHV_HUMAN	56829	independent	IPI00410067
ZC3HAV1	ZCCHV_HUMAN	56829	independent	IPI00410069
ZC3HAV1	ZCCHV_HUMAN	56829	independent	IPI00410070
ZC3HAV1	ZCCHV_HUMAN	56829	independent	IPI00410071
ZCCHC7	ZCHC7_HUMAN	84186	dependent	IPI00166710
ZCCHC7	ZCHC7_HUMAN	84186	dependent	IPI00871360
ZCCHC7	ZCHC7_HUMAN	84186	dependent	IPI01011102
ZCRB1	ZCRB1_HUMAN	85437	dependent	IPI00154614
ZCRB1	ZCRB1_HUMAN	85437	dependent	IPI01021444
ZFR	ZFR_HUMAN	51663	independent	IPI00784224
ZFR	ZFR_HUMAN	51663	independent	IPI00807564
ZNF326	ZN326_HUMAN	284695	independent	IPI00337602
ZNF326	ZN326_HUMAN	284695	independent	IPI00373877
ZNF326	ZN326_HUMAN	284695	independent	IPI00376268
ZNF326	ZN326_HUMAN	284695	independent	IPI00642074
ZNF365	ZN365_HUMAN	22891	dependent	IPI00007274
ZNF365	ZN365_HUMAN	22891	dependent	IPI00399361
ZNF365	ZN365_HUMAN	22891	dependent	IPI00399362
ZNF365	ZN365_HUMAN	22891	dependent	IPI00418945
ZNF365	ZN365_HUMAN	22891	dependent	IPI00645190
ZNF365	ZN365_HUMAN	22891	dependent	IPI00657879
ZNF365	ZN365_HUMAN	22891	dependent	IPI00658173
ZNF365	ZN365_HUMAN	22891	dependent	IPI00790285
ZNF365	ZN365_HUMAN	22891	dependent	IPI00927818
